M_glc__D_e,D-Glucose
M_gln__L_e,L-Glutamine
M_glu__L_e,L-Glutamate
M_h2o_e,H2O
M_h_e,H+
M_lac__D_e,D-Lactate
M_mal__L_e,L-Malate
M_nh4_e,Ammonium
M_o2_e,O2
M_pi_e,Phosphate
M_pyr_e,Pyruvate
M_ac_e,Acetate
M_acald_e,Acetaldehyde
M_succ_e,Succinate
M_akg_e,2-Oxoglutarate
M_co2_e,CO2
M_etoh_e,Ethanol
M_for_e,Formate
M_fru_e,D-Fructose
M_fum_e,Fumarate
objective,Virtual objective metabolite
