mps,mcs,mp_size,subset_size,network_size,dt
1,0,4,19,129,0.008485794067382812
2,0,5,19,129,0.023476362228393555
3,0,5,19,129,0.03676319122314453
4,1,5,19,129,0.04984879493713379
5,5,5,19,129,0.08547258377075195
6,9,5,19,129,0.12393999099731445
7,9,5,5,129,0.13411593437194824
