12PPDt,0.0,0.0
2DGLCNRx,0.0,0.0
2DGLCNRy,0.0,0.0
2DGULRx,0.0,0.0
2DGULRy,0.0,0.0
3HCINNMH,0.0,0.0
3HPPPNH,0.0,0.0
4HTHRS,0.0,0.0
5DGLCNR,-8.864701892357857,0.0
A5PISO,0.004200000000000001,0.03872181999213353
AACPS1,0.0,0.4713133108357463
AACPS2,0.0,1.1782832770893024
AACPS3,0.0,8.483639595043726
AACPS4,0.0,1.6495965879250005
AACPS5,0.0,11.78283277089285
AADDGT,0.0,0.0
AB6PGH,0.0,0.0
ABTA,0.0,15.72230785052423
ABUTD,0.0,14.219757211859594
ABUTt2r,0.0,1000.0
ACACCT,0.0,0.0
ACACT1r,0.0,0.0
ACACt2,0.0,0.0
ACALD,0.0,32.65332213706902
ACALDt,-17.853339810573996,0.0
ACBIPGT,0.0,0.0
ACCOAC,0.23067869999999857,82.63037309624087
ACCOAL,0.0,1000.0
ACGAMT,0.0,0.0
ACGApts,0.0,0.0
ACGK,0.0323,33.254283894995744
ACGS,0.0323,33.25428389499273
ACHBS,0.027600000000000003,6.499330222438419
ACKr,-100.16885522126336,68.5538114770975
ACLS,0.0830059000000573,9.117963429888178
ACMAMUT,0.0,0.0
ACMANApts,0.0,0.0
ACNAMt2,0.0,0.0
ACNML,0.0,0.0
ACOATA,-82.3996943962693,2.878708963051622
ACODA,0.0323,33.25428389498648
ACONMT,0.0,0.0
ACONT,0.11105999999990895,31.51712140264318
ACOTA,-33.254283894994046,-0.0322999999999638
ACPS1,0.0,0.0
ACS,0.0,82.39969439626906
ACt2r,-24.989844381242165,0.0
ADA,0.0,33.23034389499092
ADCL,0.0050000000000000044,0.046097404752523496
ADCS,0.0049999999999999906,0.046097404752523524
ADD,0.0,33.230343895002164
ADEt2,-5.6343656228814325,0.0
ADHEr,0.0,18.544834033334723
ADK1,-999.6914936000018,1000.0
ADK3,-999.7690503999964,999.9224432000005
ADK4,0.0,0.0
ADMDC,0.0007000000000000001,0.006453636665355589
ADNCYC,0.0,0.0
ADNK1,0.0,82.4520943962562
ADNt2_copy1,0.0,1000.0
ADNt2_copy2,-1000.0,0.0
ADOCBIK,0.0,0.0
ADOCBLS,0.0,0.0
ADPT,0.0,41.22604719812806
ADSK,0.0233059000000006,0.21486830108436736
ADSL1r,0.028949899999815898,33.259293795000694
ADSL2r,0.047790900000023756,6.275728119736641
ADSS,0.028949900000299712,33.259293795000275
AGDC,0.0,0.0
AGMHE,0.00252,0.023233091995271744
AGMT,0.0,9.70034266129539
AGPR,-33.25428389500439,-0.0322999999999638
AHCYSNS,0.0,0.0
AHCi,0.0,0.0
AICART,0.05679089999989416,6.576397107699677
AIRC2,0.047790899999787584,6.2757281197367565
AIRC3,-6.2757281197367565,-0.047790900000109104
AKGDH,0.0,16.238719788254258
AKGt2r,-11.204234587528163,0.0
ALAALAr,0.0027600000000000003,0.025445767423392843
ALAR_copy1,-999.99448,51.855535116669444
ALAR_copy2,0.0,1000.0
ALATA_D2,0.0,40.0
ALATA_L,-1000.0,-0.057080000000041764
ALATA_L2,0.0,40.0
ALAabc,0.0,109.86625919501682
ALAt2r,-109.86625919501682,0.0
ALCD19,-8.61522355318209,0.0
ALDD19xr,0.0,0.0
ALDD2x,0.0,24.94576956532979
ALLTAHr,0.0,0.0
ALLTN,0.0,0.0
ALLTNt2r,0.0,0.0
ALTRH,0.0,0.0
AMALT1,0.0,0.0
AMALT2,0.0,0.0
AMALT3,0.0,0.0
AMALT4,0.0,0.0
AMANAPEr,0.0,0.0
AMANK,0.0,0.0
AMAOTr,0.0,0.0
AMMQT8_2,0.0,0.0
AMPMS,0.0,0.0
AMPN,0.0,82.39969439625676
ANPRT,0.0054,4.7072130555023275
ANS,0.0054,4.707213055501998
AOXSr,0.0,0.0
AP4AH,0.0,0.0
AP5AH,0.0,0.0
APRAUR,1.0000000000000002e-06,9.21948095050469e-06
ARAI,0.0,0.0
ARBabc,0.0,109.86625919500834
ARBt2r,-109.86625919500834,0.0
ARGDC,0.0,9.700342661296855
ARGORNt7,-109.86625919500648,0.0
ARGSL,0.028100000000000003,11.89039424821567
ARGSS,0.028100000000000003,11.890394248215525
ARGabc,0.0,109.86625919503288
ASAD,-19.053762131424058,-0.049960000000055516
ASNN,0.0,41.19984719813384
ASNS1,0.0,27.481831465425465
ASNS2,0.0,41.22274719813265
ASNabc,0.0,109.86625919502244
ASNt2r,-109.86625919501671,0.0
ASP1DC,5.900000000003125e-06,5.439493760821099e-05
ASPCT,0.031509999999999934,12.486180060294544
ASPK,0.049960000000000004,19.0537621314204
ASPO3_1,0.0,0.0025169182994899675
ASPO4_1,0.0,0.002516918299487747
ASPO5_1,0.0,0.0025169182994899675
ASPO6_1,0.0,0.0025168984435827157
ASPT,0.0,166.0469194749906
ASPTA,-166.31034237500754,-0.23238970000045356
ASPabc,0.0,0.0
ASPt2_2,0.0,0.0
ASPt2_3,0.0,0.0
ASPt2r,0.0,0.0
AST,0.0,11.860494248213845
ATPM,7.6,7.6
ATPPRT,0.009,6.528606207699388
ATPS4r,-23.458578733331706,87.00991786666509
BETALDHx,0.0,0.0
BETALDHy,0.0,0.0
BIOMASS_Ecoli,0.1,0.9219480950504658
BPNT,0.02330589999999999,0.2148683010843659
BSORx,0.0,0.0
BSORy,0.0,0.0
BTS2,0.0,0.0
BUTCT,0.0,0.0
BUTt2r,0.0,0.0
C120SN,0.004200000000000001,0.038721819992119696
C140SN,0.0013818,0.43350226677505443
C141SN,0.001354499999999998,0.012487786947458576
C160SN,0.009752400000000001,2.793098840716629
C161SN,0.0018962999999999983,0.017482901726442006
C181SN,0.013545000000000014,0.12487786947458554
CADVt,0.0,6.906804523109753
CAT,0.0,20.0
CBIAT_DELETE,0.0,0.0
CBL1abc,0.0,0.0
CBLAT_DELETE,0.0,0.0
CBMKr,0.0,12.641699088889325
CBPS,0.0,9.75216786857166
CDAPPA_EC,0.0,41.199847198124274
CDPMEK,0.0,0.0
CHLabc,0.0,109.8662591949746
CHLt2,-109.86625919498496,0.0
CHORM,0.0307,4.980182044460435
CHORS,0.0411,4.990582044460431
CHRPL,0.0,0.0
CINNDO,0.0,0.0
CITL,0.0,82.39969439626061
CITt7,0.0,0.0
CLPNS_EC,0.000645,0.005946565213093891
CMPN,0.0,27.466564798752472
CO2t,-32.08551186666841,12.718701118890067
CPPPGO,0.0,0.0
CRNBTCT,0.0,0.0
CRNCBCT,0.0,0.0
CRNCDH,0.0,0.0
CRNt7,0.0,0.0
CS,0.11105999999999949,82.96319097874337
CSND,0.0,27.466564798750003
CSNt2,0.0,0.0
CTPS2,0.015140000000000004,27.49976146541744
CYANST,0.0,0.0
CYNTAH,0.0,0.0
CYNTt2,0.0,0.0
CYSDS,0.0,28.306309003570313
CYSS,0.02330590000002125,28.32961490357051
CYSTL,0.014599999999999998,0.13460442187736837
CYSabc,0.0,0.0
CYTBD,0.0,40.0
CYTBO3,0.0,40.0
CYTD,0.0,27.466564798749726
CYTDK2,0.0,82.39969439624602
CYTDt2_copy1,0.0,1000.0
CYTDt2_copy2,-1000.0,0.0
CYTK1,-27.448813898748654,41.21759809812238
CYTK2,-19.783236260733766,41.19984719812828
DAAD,0.0,40.0
DADA,0.0,33.23034389500011
DADK,-32.657288335345925,41.1998471981226
DADNt2,0.0,0.0
DAGK_EC,0.00168,82.40137439626741
DALAt2r,-18.069915059775553,0.0
DAPDC,0.032600000000000004,6.939404523106418
DAPE,0.03535999999996875,6.942164523107067
DAPabc,0.0,0.0
DASYN_EC,0.015225,41.21507219813452
DB4PS,2.0000000000000003e-06,1.8438961901009276e-05
DBTS,0.0,0.0
DCTPD,0.0,19.783753538220633
DCYTD,0.0,19.783236260734316
DCYTt2,0.0,0.0
DDGALK,0.0,0.0
DDGLCNt2r,0.0,0.0
DDGLK,0.0,0.0
DDPA,0.04110000000000002,4.990582044460457
DDPGALA,0.0,0.0
DGK1,-32.65728833534865,41.19984719813192
DGSNt2,0.0,0.0
DHAD1,0.08300590000000002,9.117963429893758
DHAD2,0.027600000000000003,6.499330222442169
DHAPT,0.0,54.40483650052869
DHAt,-16.370083225643192,0.0
DHBD,0.0,0.0
DHBSr,0.0,0.0
DHCIND,0.0,0.0
DHCINDO_1,0.0,0.0
DHDPRy,0.03536,6.942164523110534
DHDPS,0.03536,6.942164523109674
DHFR,0.007470000000000011,4.552195850863882
DHFS_1,0.0050000000000000044,0.0460974047525223
DHNAOT,0.0,0.0
DHNPA2r,0.0049999999999999906,0.04609740475252331
DHORD2,0.0,12.486180060293865
DHORD5,0.0,12.486180060294389
DHORTS,-12.486180060294723,-0.031510000000025684
DHPPD,0.0,0.0
DHPPDA2,1.0000000000000002e-06,9.219480950504697e-06
DHPS2_1,0.0050000000000000044,0.04609740475252338
DHPTDCs,0.0,0.0
DHQS,0.041100000000000005,4.990582044459514
DHQTi,0.04110000000002856,4.990582044459757
DINSt2,0.0,0.0
DKGLCNR1,0.0,0.0
DKGLCNR2x,0.0,0.0
DKGLCNR2y,0.0,0.0
DKMPPD,0.0,0.006453636665353278
DKMPPD2,0.0,0.006453427798361017
DMATT,0.0,0.0
DMPPS,0.0,0.0
DMQMT,0.0,0.0
DMSOR1,0.0,0.0
DMSOR1e,0.0,0.0
DMSOR2,0.0,0.0
DMSOR2e,0.0,0.0
DNMPPA,0.0050000000000000044,0.04609740475252347
DNTPPA,0.0050000000000000044,0.0460974047525234
DOGULNR,0.0,0.0
DPCOAK,5.900000000003125e-06,5.439493760821115e-05
DPR,5.900000000003125e-06,5.43949376082112e-05
DRPA,0.0,32.656181093964804
DSERt2,0.0,0.0
DTMPK,0.00247,41.20231719812341
DURIK1,0.0,82.39969439624777
DURIPP,-4.329691714499092,32.65618109396519
DURIt2,0.0,0.0
DUTPDP,0.0,41.19984719812703
DXPRIi,0.0,0.0
DXPS,0.0,0.0
DXYLK,0.0,0.0
D_LACt2,-18.544834033335633,0.0
E4PD,0.0,0.0
ECAP_EC,0.0,0.0
EDA,0.0,36.48044668783079
EDD,0.0,36.48044668783693
EDTXS1,0.00084,0.0077443639984239206
EDTXS2,0.00084,0.0077443639984239344
EDTXS3,0.0,0.0
EDTXS4,0.0,0.0
ENO,-25.198826275003967,34.324102851133375
ENTCS_1,0.0,0.0
ETHAAL,0.0,10.998641842742384
ETOHt2r,-18.54483403333279,0.0
EX_12ppd__S_e,0.0,0.0
EX_15dap_e,0.0,6.906804523109381
EX_26dap__M_e,0.0,0.0
EX_2ddglcn_e,0.0,0.0
EX_3hcinnm_e,0.0,0.0
EX_3hpppn_e,0.0,0.0
EX_4abut_e,0.0,10.531449030869632
EX_ac_e,0.0,24.989844381251086
EX_acac_e,0.0,0.0
EX_acald_e,0.0,17.85333981057412
EX_acgam_e,0.0,0.0
EX_acmana_e,0.0,0.0
EX_acnam_e,0.0,0.0
EX_ade_e,0.0,5.634365622881656
EX_adn_e,0.0,4.260253205405018
EX_akg_e,0.0,11.204234587527962
EX_ala__D_e,0.0,18.069915059783852
EX_ala__L_e,0.0,18.069915059783092
EX_alltn_e,0.0,0.0
EX_amp_e,0.0,0.0
EX_arab__L_e,0.0,0.0
EX_arg__L_e,0.0,7.272505275377498
EX_asn__L_e,0.0,13.730821155598974
EX_asp__L_e,0.0,0.0
EX_but_e,0.0,0.0
EX_cbl1_e,0.0,0.0
EX_chol_e,0.0,0.0
EX_cit_e,0.0,0.0
EX_co2_e,-12.718701118887566,32.08551186666591
EX_crn_e,0.0,0.0
EX_csn_e,0.0,0.0
EX_cynt_e,0.0,0.0
EX_cys__L_e,0.0,0.0
EX_cytd_e,0.0,5.235993306077827
EX_dad_2_e,0.0,0.0
EX_dcyt_e,0.0,0.0
EX_dgsn_e,0.0,0.0
EX_dha_e,0.0,16.370083225640844
EX_din_e,0.0,0.0
EX_dms_e,0.0,0.0
EX_dmso_e,0.0,0.0
EX_duri_e,0.0,0.0
EX_etoh_e,0.0,18.54483403333278
EX_fe2_e,0.0,0.0
EX_for_e,0.0,42.749971078300455
EX_fru_e,0.0,0.0
EX_fuc1p__L_e,0.0,0.0
EX_fuc__L_e,0.0,0.0
EX_fum_e,0.0,16.595924696166783
EX_g6p_e,0.0,0.0
EX_gal_e,0.0,0.0
EX_galct__D_e,0.0,0.0
EX_galctn__D_e,0.0,0.0
EX_galt_e,0.0,0.0
EX_galur_e,0.0,0.0
EX_gam_e,0.0,0.0
EX_gbbtn_e,0.0,0.0
EX_glc__D_e_rev,1.4119862620773387,10.0
EX_glcn_e,0.0,8.855386519302767
EX_glcr_e,0.0,0.0
EX_glcur_e,0.0,0.0
EX_gln__L_e,0.0,0.0
EX_glu__L_e,0.0,10.440660677155577
EX_gly_e,0.0,23.474564673015745
EX_glyald_e,0.0,8.615223553180153
EX_glyb_e,0.0,0.0
EX_glyc3p_e,0.0,0.0
EX_glyc_e,0.0,8.484345883783966
EX_glyclt_e,0.0,24.340065832173707
EX_gsn_e,0.0,0.0
EX_gua_e,0.0,4.961563757462147
EX_h2o_e,-8.83333608826797,67.22589614903086
EX_h_e,0.9141019999985929,50.03516013278045
EX_hdca_e,0.0,0.0
EX_his__L_e,0.0,6.51960620770053
EX_hxan_e,0.0,6.2279372197376635
EX_idon__L_e,0.0,8.864701892356774
EX_ile__L_e,0.0,6.471730222441819
EX_indole_e,0.0,4.701813055502101
EX_ins_e,0.0,4.611212287134549
EX_k_e,0.0,0.0
EX_lac__D_e,0.0,18.544834033335192
EX_lac__L_e,0.0,0.0
EX_lcts_e,0.0,0.0
EX_leu__L_e,0.0,6.771832204942185
EX_lys__L_e,0.0,6.906804523109427
EX_mal__L_e,0.0,0.0
EX_malt_e,0.0,0.0
EX_malthx_e,0.0,0.0
EX_maltpt_e,0.0,0.0
EX_malttr_e,0.0,0.0
EX_maltttr_e,0.0,0.0
EX_man6p_e,0.0,0.0
EX_man_e,0.0,0.0
EX_melib_e,0.0,0.0
EX_met__D_e,0.0,0.0
EX_met__L_e,0.0,0.0
EX_mnl_e,0.0,0.0
EX_na1_e,0.0,0.0
EX_nac_e,0.0,0.0
EX_nad_e,0.0,0.0
EX_nh4_e,-35.02822757001218,-1.0684462999990956
EX_nmn_e,0.0,0.0
EX_no2_e,0.0,0.0
EX_no3_e,0.0,0.0
EX_o2_e_rev,0.0,20.0
EX_ocdca_e,0.0,0.0
EX_orn_e,0.0,8.473296270617935
EX_phe__L_e,0.0,4.754364486858922
EX_pi_e,-0.8404819955275116,-0.09116370000037932
EX_pnto__R_e,0.0,0.0
EX_pppn_e,0.0,0.0
EX_pro__L_e,0.0,8.837739120967528
EX_ptrc_e,0.0,8.561559773437668
EX_pyr_e,0.0,18.69834916666625
EX_rib__D_e,0.0,0.0
EX_rmn_e,0.0,0.0
EX_sbt__D_e,0.0,0.0
EX_ser__D_e,0.0,0.0
EX_ser__L_e,0.0,18.63256366999928
EX_so4_e,-0.2148683010843797,-0.02330589999996846
EX_spmd_e,0.0,0.0
EX_succ_e,0.0,15.503991159915117
EX_sucr_e,0.0,0.0
EX_tartr__L_e,0.0,0.0
EX_taur_e,0.0,0.0
EX_thm_e,0.0,0.0
EX_thr__L_e,0.0,11.003555298513374
EX_thymd_e,0.0,4.544725850863187
EX_tma_e,0.0,0.0
EX_tmao_e,0.0,0.0
EX_tre_e,0.0,0.0
EX_trp__L_e,0.0,3.8799693024127477
EX_tsul_e,0.0,0.0
EX_ttdca_e,0.0,0.0
EX_tyr__L_e,0.0,4.949482044459737
EX_ura_e,0.0,12.454670060293665
EX_urea_e,0.0,9.700342661296165
EX_uri_e,0.0,5.602330301083839
EX_val__L_e,0.0,9.034957529891262
EX_xan_e,0.0,6.152184662037184
EX_xtsn_e,0.0,4.649190699931329
EX_xyl__D_e,0.0,0.0
F6PA,-11.070396631665744,54.404675250531454
FAO1,0.0,0.43212046677511967
FAO2,0.0,2.7833464407169677
FAO3,0.0,0.0
FAO4,0.0,0.0
FBA,-44.69251077313288,20.839976022641622
FBP,0.0,82.39969439626815
FCI,0.0,0.0
FCLK,0.0,0.0
FCLPA,0.0,0.0
FCLT,0.0,0.0
FDH2,0.0,32.8812081874039
FDH3,0.0,32.881208187404994
FE2abc,0.0,0.0
FFSD,0.0,0.0
FHL,0.0,32.88120818740446
FMNAT,1.0000000000000002e-06,9.219480950504682e-06
FORt,-42.74997107830832,0.0
FRD2,0.0,50.18654128571543
FRD3,0.0,50.15475828571653
FRUK,0.0,0.0
FRUpts,0.0,0.0
FRUpts2,0.0,0.0
FTHFD,0.0,82.48589707501264
FUCPt6_2,0.0,0.0
FUCt,0.0,0.0
FUM,-16.206842458112078,166.15175997504275
FUMt2_2,0.0,329.598777585089
FUMt2_3,0.0,164.79938879254024
G1PACT,0.007200000000000001,0.06638026284363377
G1PP,0.0,82.39969439626667
G1PTT,0.0,0.0
G1SAT,0.0,0.0
G3PD2,-50.88520011381079,-0.016510000000039327
G3PD5,0.0,40.0
G3PD6,0.0,50.15261542857287
G3PD7,0.0,50.152615428571956
G5SADs,0.021,55.36997315834015
G5SD,0.0,55.36997315833751
G6PDA,0.0,82.39969439626758
G6PDH2r,0.0,47.1596156958351
G6Pt6_2,0.0,0.0
GALCTD,0.0,0.0
GALCTND,0.0,0.0
GALCTNt2r,0.0,0.0
GALCTt2r,0.0,0.0
GALKr,0.0,0.0
GALS3,0.0,0.0
GALTpts,0.0,0.0
GALURt2r,0.0,0.0
GALUi_copy1,-999.99802,41.20182719813556
GALUi_copy2,0.0,1000.0
GALabc,0.0,0.0
GALt2,0.0,0.0
GAMpts,0.0,0.0
GAPD,-16.772064835074275,19.713983833334737
GARFT,-82.35190349626589,6.199199147147738
GART,0.0,82.39969439627244
GCALDD,0.0049999999999999906,0.04609740475252326
GDMANE,0.0,0.0
GF6PTA,0.007200000000000001,82.40689439625584
GHMT2r,0.0,20.937224727412598
GK1,0.027840999999999994,42.55075339180803
GLCDe,0.0,10.0
GLCNt2r,0.0,10.0
GLCP,0.0,82.399694396271
GLCRAL,0.0,0.0
GLCRD,0.0,0.0
GLCRt2r,0.0,0.0
GLCS1,0.0154,82.41509439625897
GLCURt2r,0.0,0.0
GLCpts,0.0,10.0
GLCt2,0.0,10.0
GLGC,0.0154,82.41509439626441
GLNS,0.19016279999851293,82.58985719625586
GLNabc,0.0,0.0
GLTPD,0.0,0.0
GLU5K,0.0,55.36997315833418
GLUABUTt7,0.0,1000.0
GLUCYS,0.0,0.0
GLUDC,0.0,16.563118126774025
GLUDy,-166.87922097503042,81.56739289626785
GLUN,0.0,82.39969439626775
GLUPRT,0.047790899999288795,6.275728119737131
GLUR,-0.025445767423434518,-0.002759999999966567
GLUSy,0.0,82.39969439625568
GLUTRR,0.0,0.0
GLUTRS,0.0,0.0
GLUabc,0.0,109.86625919501351
GLUt2r,-1000.0,0.0
GLUt4,0.0,1000.0
GLXCL,0.0,15.705447919868623
GLYALDt,-8.615223553180954,0.0
GLYAT,-32.653322137068244,0.0
GLYBabc,0.0,109.86625919499554
GLYBt2r,-109.8662591949978,0.0
GLYC3Pabc,0.0,0.0
GLYC3Pt6,0.0,0.0
GLYCDx,0.0,11.070396631667474
GLYCK,0.0,15.705447919867712
GLYCL,0.0,21.73109574350166
GLYCLTDx,0.0,50.15261542857058
GLYCLTDy,0.0,50.152615428571195
GLYCLTt2r,-24.34006583217365,0.0
GLYCTO2,0.0,40.0
GLYCTO3,0.0,50.154758285713655
GLYCTO4,0.0,50.1547582857138
GLYCt,0.0,8.484345883783249
GLYK,0.0,11.772029913749204
GLYOX,0.0,33.00678852958465
GLYt2r,-23.474564673015948,0.0
GMAND,0.0,0.0
GMHEPAT,0.00252,0.02323309199527178
GMHEPK,0.00252,0.02323309199527182
GMHEPPA,0.00252,0.02323309199527161
GMPR,0.0,23.720988496429563
GMPS2,0.02784099999992716,23.748829496424456
GND,0.0,34.13970488099159
GNK,0.0,10.0
GOFUCR,0.0,0.0
GP4GH,0.0,0.0
GPDDA1,0.0,0.0
GPDDA2,0.0,10.998641842741
GPDDA3,0.0,0.0
GPDDA4,0.0,11.771384913750012
GPDDA5,0.0,0.0
GRTT,0.0,0.0
GSNK,0.0,82.4513943962422
GSNt2,0.0,0.0
GSPMDA,0.0,82.39969439625247
GSPMDS,0.0,82.39969439624772
GTHOr,0.0,0.0
GTHS,0.0,0.0
GTPCII2,1.0000000000000002e-06,9.219480950504675e-06
GTPCI_1,0.0049999999999999906,0.04609740475252341
GUAD,0.0,16.490278879252955
GUAPRT,0.0,41.22569719813617
GUAt,-329.5987775850679,0.0
GUAt2r,0.0,329.59877758504456
GUI1,0.0,0.0
GUI2,0.0,0.0
H2Ot,-71.94464973436209,8.833336088283772
HBZOPT,0.0,0.0
HCINNMt2r,0.0,0.0
HCO3E,0.2784695999990845,82.67816399626257
HDCAt2,0.0,0.0
HEMEOS,0.0,0.0
HETZK,0.0,0.0
HEX1,0.0,89.89969439625426
HISTD,0.009,6.528606207700382
HISTP,0.009,6.528606207699217
HISabc,0.0,109.86625919500442
HISt2r,-109.86625919500442,0.0
HKNDDH_1,0.0,0.0
HKNTDH_1,0.0,0.0
HMBS,0.0,0.0
HMPK1,0.0,0.0
HOPNTAL,0.0,0.0
HPPK2,0.0049999999999999975,0.04609740475252344
HPPPNDO_1,0.0,0.0
HPPPNt2r,0.0,0.0
HPYRI,-15.705447919867424,0.0
HPYRRx,0.0,15.705447919867348
HPYRRy,0.0,14.91523670377354
HSDy,-19.01840213141952,-0.014599999999973079
HSK,0.0,19.003802131419448
HSST,0.014599999999999998,0.13460442187736832
HSTPT,0.009,6.528606207699683
HXPRT,0.0,41.19984719812504
HYD1,0.0,32.88120818740412
HYD2,0.0,32.88120818740421
HYD3,0.0,32.881208187404674
HYPOE,0.0,82.39969439626206
HYXNt,-6.227937219737901,0.0
ICDHyr,0.11105999999986704,18.546766571835178
ICHORS,0.0,0.0
ICHORT,0.0,0.0
ICL,0.0,31.406061402655265
IDOND,-166.04691947500214,8.864701892357516
IDOND2,0.0,166.04691947503258
IDONt2r,-8.864701892358198,0.0
IG3PS,0.009,6.528606207699742
IGPDH,0.009,6.528606207699497
IGPS,0.0054,4.707213055501844
ILETA,-6.499330222441131,-0.02760000000000673
ILEabc,0.0,109.86625919501657
ILEt2r,-109.86625919500462,0.0
IMPC,-6.5763971076997905,-0.05679089999932785
IMPD,0.027841000000000005,23.74882949643103
INDOLEt2r,-4.701813055501475,0.0
INSK,0.0,82.3996943962415
INSt2_copy1,0.0,1000.0
INSt2_copy2,-1000.0,0.0
IPDDI,0.0,0.0
IPDPS,0.0,0.0
IPMD,0.042800000000000005,6.814632204941965
IPPMIa,-6.814632204941965,-0.04280000000005657
IPPMIb,-6.814632204941859,-0.04280000000005657
IPPS,0.042800000000000005,6.814632204941565
KARA1,-9.117963429891233,-0.0830058999999892
KARA2,0.027600000000000003,6.499330222440646
KAS14,0.0,2.8787089630522087
KAS15,0.0,2.8787089630523655
KAS16,0.00336,0.03097745599369575
KDOCT2,0.004200000000000001,0.03872181999211985
KDOPP,0.004200000000000001,0.038721819992119655
KDOPS,0.004200000000000001,0.03872181999211957
KG6PDC,0.0,0.0
Kabc,0.0,109.8662591950015
Kt2r,-109.8662591950015,0.0
LACZ,0.0,0.0
LCADi_copy1,-1000.0,0.0
LCADi_copy2,0.0,1000.0
LCARS,0.0,0.0
LCTSt,0.0,0.0
LDH_D,-51.85001511666667,33.00678852958299
LDH_D2,0.0,40.0
LEUTAi,0.042800000000000005,6.814632204941719
LEUabc,0.0,109.86625919499164
LEUt2r,-109.86625919498967,0.0
LGTHL,0.0,33.006788529583346
LPADSS,0.00084,0.0077443639984239795
LPLIPA1,0.0,11.771384913749477
LPLIPA2,0.0,10.998641842741643
LPLIPA3,0.0,0.0
LPLIPA4,0.0,0.0
LPLIPA5,0.0,0.0
LPLIPA6,0.0,0.0
LPSSYN_EC,0.00084,0.007744363998423935
LYSDC,0.0,6.906804523109193
LYSabc,0.0,109.86625919499652
LYSt2r,-109.86625919499119,0.0
L_LACD2,0.0,0.0
L_LACD3,0.0,0.0
L_LACt2r,0.0,0.0
M1PD,0.0,0.0
MACPD,0.0,82.3996943962457
MALS,0.0,17.905714107229283
MALTHXabc,0.0,0.0
MALTPTabc,0.0,0.0
MALTTRabc,0.0,0.0
MALTTTRabc,0.0,0.0
MALTabc,0.0,0.0
MALTpts,0.0,0.0
MALt2_2,0.0,0.0
MALt2_3,0.0,0.0
MAN1PT2,0.0,0.0
MAN6PI,0.0,0.0
MAN6Pt6_2,0.0,0.0
MANAO,0.0,0.0
MANpts,0.0,0.0
MCITD,0.0,33.039902841319694
MCITL2,0.0,33.03990284131912
MCITS,0.0,33.03990284131974
MCOATA,0.23067870000000013,82.63037309624792
MDH,-71.31961982500782,166.15175997499614
MDH2,0.0,40.0
MDH3,0.0,50.152615428571025
MDRPD,0.0007000000000000001,0.006453636665353289
ME1,0.0,49.55985426197823
ME2,0.0,49.960476869269385
MECDPDH,0.0,0.0
MECDPS,0.0,0.0
MELIBt2,0.0,0.0
MEPCT,0.0,0.0
METAT,0.0007000000000000001,0.006453636665353288
METDabc,0.0,0.0
METS_1,0.014599999999999998,0.1346044218773684
METabc,0.0,0.0
MGSA,0.0,33.0067885295833
MI1PP,0.0,0.0
MICITDr,0.0,33.0399028413186
MLTG1,0.0,0.0
MLTG2,0.0,0.0
MLTG3,0.0,82.39969439624798
MLTG4,0.0,82.39969439624684
MLTG5,0.0,82.39969439624797
MLTP1,-82.39969439624797,0.0
MLTP2,-82.3996943962486,0.0
MLTP3,-82.39969439624826,0.0
MMCD,0.0,33.039902841321556
MME,0.0,33.039902841319645
MMM2,0.0,33.03990284132283
MNLpts,0.0,0.0
MNNH,0.0,0.0
MOAT,0.00084,0.007744363998423913
MOAT2,0.00084,0.007744363998423931
MOHMT,5.900000000044758e-06,5.439493760821126e-05
MTAN,0.0007000000000000001,0.006453636665353261
MTHFC_1,-4.520485696665105,31.392422487968815
MTHFD_1,-4.520485696664764,31.39242248796768
MTHFR2_1,0.0196,0.18070182662989173
MTRI,0.0007000000000516593,0.006453636665353281
MTRK,0.0007000000000000001,0.006453636665353259
NACODA,0.0,33.221983895002744
NACt,0.0,0.0
NADDP,0.0,41.199847198118164
NADDPe,0.0,0.0
NADH10,0.0,50.15261542857182
NADH5,0.0,40.0
NADH6,0.0,40.0
NADH7,0.0,50.15261542857115
NADH8,0.0,50.15261542857113
NADH9,0.0,50.15261542857113
NADK,5.300000000204447e-05,82.39974739625029
NADPPPS,0.0,82.39969439624808
NADS1,0.00027300000000707314,20.600196599061462
NADTRHD,0.0,166.04691947499995
NAMNPP,0.0,11.77138491375004
NAt3_1,-659.1975551701496,1000.0
NAt3_15,0.0,329.59877758510004
NAt3_2,0.0,329.5987775850711
NDPK1,-999.6914936000038,1000.0
NDPK2,0.037919999999999926,42.56330239179533
NDPK3,-27.4677305654169,41.21927809812533
NDPK4,0.00247,41.202317198122444
NDPK5,-32.657288335344695,41.202387198123915
NDPK6,-32.65865109396539,41.199847198126236
NDPK7,-19.783236260724834,41.20238719812642
NDPK8,-32.65728833534456,41.20231719812409
NH4t,1.0684463000008009,35.02822757000581
NMNAT,0.0,41.19984719812697
NMNDA,0.0,20.599923599062507
NMNN,0.0,11.771384913749902
NMNP,0.0,0.0
NMNt7,0.0,0.0
NNAM,0.0,11.771384913748548
NNATr,0.00027300000000095304,20.60019659906183
NNDMBRT,0.0,0.0
NNDPR,0.00027300000004311376,0.0025169182994900785
NO2t2r,0.0,0.0
NO3R1,0.0,0.0
NO3R2,0.0,0.0
NO3t7,0.0,0.0
NPHS,0.0,0.0
NTD1,0.0,82.45139439624634
NTD10,0.0,41.199847198121404
NTD11,0.0,82.39969439624731
NTD2,0.0,82.39969439624724
NTD3,0.0,19.78323626073183
NTD4,0.0,82.39969439624733
NTD5,0.0,82.39969439624733
NTD6,0.0,32.657288335344305
NTD7,0.0,82.39969439624076
NTD8,0.0,32.65728833534387
NTD9,0.0,82.3996943962431
NTPP1,0.0,41.199847198121965
NTPP2,0.0,41.19984719812141
NTPP3,0.0,41.19984719812281
NTPP4,0.0,41.19984719812178
NTPP5,0.0,41.199847198122484
NTPP6,0.0,41.19984719811921
NTPP7,0.0,41.19984719812186
NTPP8,0.0,41.19984719812312
NTPTP1,0.0,0.0
NTPTP2,0.0,0.0
NTRIR2x,0.0,0.0
O2t,0.0,20.0
OBTFL,0.0,14.95088642410573
OCBT,0.028100000000000003,11.890394248214648
OCDCAt2,0.0,0.0
OCTDPS,0.0,0.0
OHPBAT,0.0,0.0
OHPHM,0.0,0.0
OMBZLM,0.0,0.0
OMCDC,0.042800000000000005,6.814632204941742
OMMBLHX,0.0,0.0
OMPDC,0.031509999999999934,12.486180060294013
OMPHHX,0.0,0.0
OP4ENH,0.0,0.0
OPHBDC,0.0,0.0
OPHHX,0.0,0.0
ORNDC,0.0,15.380257148847328
ORNTA,0.0,33.22198389500466
ORNabc,0.0,109.86625919500185
ORPT,-12.48618006029468,-0.031510000000025684
OXGDC2,0.0,0.0
P5CD,0.0,55.34897315834396
P5CR,0.021,46.4459962106673
PACCOAL,0.0,0.0
PANTS,5.8999999998365915e-06,5.4394937608211314e-05
PAPA_EC,0.0,82.3996943962515
PAPPT3,0.0027600000000000003,0.025445767423392943
PAPSR,0.02330589999999983,0.21486830108436758
PASYN_EC,0.013545000000000001,11.796377770892375
PDH,0.0,27.582065736038448
PDX5POi,0.0,0.0
PDX5PS,0.0,0.0
PDXPP,0.0,82.39969439624784
PEAMNO,0.0,0.0
PEPT_EC,0.00168,0.015488727996847945
PERD,0.0,0.0
PFK,0.0,92.08290698375077
PFK_2,0.0,0.0
PFL,0.0,32.724566995283766
PGAMT,-0.06638026284363363,-0.0072000000000116415
PGCD,0.055420900000021256,39.837289425000016
PGI,-37.17699569583408,9.982619999999997
PGK,-19.71398383333303,16.772064835068818
PGL,0.0,47.159615695833935
PGLYCP,0.0,0.0
PGM,-34.32410285113292,25.198826275000556
PGMT,-82.41707439626316,-0.017380000000002838
PGPP_EC,0.0036100000000000004,11.774994913751442
PGSA_EC,0.003609999999980573,11.774994913749993
PHETA1,-4.771964486859588,-0.017600000000015825
PHEt2r,-4.754364486859686,0.0
PIabc,0.0,109.86625919499903
PIt2r,-109.7750954949993,0.8404819955277074
PLIPA1,0.0,11.771384913750474
PLIPA2,0.0,10.998641842743426
PLIPA3,0.0,0.0
PMANM,0.0,0.0
PMDPHT,1.0000000000000002e-06,9.219480950504685e-06
PMPK,0.0,0.0
PNTK,5.899999949432466e-06,5.4394937608211226e-05
PNTOt4,0.0,0.0
POX,0.0,26.081233845865135
PPA,0.3359315000002687,82.73562589624785
PPAKr,0.0,1000.0
PPBNGS,0.0,0.0
PPC,0.0,82.8781463468749
PPCDC,5.900000021319407e-06,5.4394937608211504e-05
PPCK,0.0,82.39969439624936
PPCSCT,0.0,1000.0
PPM,-82.45209439624921,41.18644839312464
PPM2,0.0,32.656181093964506
PPNCL2,5.900000000603339e-06,5.439493760821109e-05
PPND,0.0131,4.962582044459699
PPNDH,0.0176,4.771964486859934
PPPGO,0.0,0.0
PPPNDO,0.0,0.0
PPPNt2r,0.0,0.0
PPS,0.0,82.39969439625511
PPTGS,0.0027600000000000003,0.025445767423393068
PRAGSr,0.04779089999999542,6.275728119736186
PRAIS,0.047790900000006374,6.27572811973722
PRAIi,0.0054,4.707213055501835
PRAMPC,0.009,6.5286062076997275
PRASCSi,0.04779089999999222,6.275728119736755
PRATPP,0.009,6.528606207699369
PRFGS,0.047790900000215616,6.2757281197367885
PRMICI,0.009,6.52860620769974
PROD2,0.0,40.0
PROabc,0.0,109.86625919499902
PROt2r,-1000.0,0.0
PROt4,0.0,1000.0
PRPPS,0.09397389999924144,41.320021098130155
PSCVT,0.04110000000000373,4.990582044460211
PSD_EC,0.011355,11.009996842738609
PSERT,0.055420899999949425,39.837289424983226
PSP_L,0.05542090000000177,39.837289425000776
PSSA_EC,0.011615,11.010256842739523
PTA2,0.0,1000.0
PTAr,-68.55381147708204,100.16885522124562
PTPATi,5.900000021197976e-06,5.4394937608210874e-05
PTRCORNt7,0.0,109.8662591950033
PTRCTA,0.0,14.219757211861316
PTRCabc,0.0,109.86625919499843
PTRCt2,-109.86625919499843,0.0
PUNP1,-82.45209439624989,41.19949719812052
PUNP2,-33.20966389500177,32.65728833534513
PUNP3,-32.65728833534553,41.199847198125326
PUNP4,0.0,32.65728833534445
PUNP5,-33.230343894998214,41.19984719812555
PUNP6,0.0,33.23034389500208
PUNP7,-3.9941112845017006,41.19984719812487
PYAM5PO,0.0,40.0
PYDAMK,0.0,82.39969439624429
PYDXK,0.0,82.39969439624328
PYDXNK,0.0,82.39969439624328
PYDXPP,0.0,82.39969439624328
PYK,0.0,99.02036558874617
PYNP2r,-33.454454015625515,41.199847198126236
PYRt2,-18.698349166665935,0.0
QULNS_1,0.0002730000000166419,0.0025169182994864148
RBFK,1.0000000000000002e-06,9.21948095050469e-06
RBFSa,2.0000000000000003e-06,1.8438961901009343e-05
RBFSb,1.0000000000000002e-06,9.219480950504706e-06
RBK,0.0,0.0
RBK_L1,0.0,0.0
RBP4E,0.0,0.0
RHCCE,0.0,0.0
RIBabc,0.0,0.0
RMI,0.0,0.0
RMK,0.0,0.0
RMNt,0.0,0.0
RMPA,0.0,0.0
RNDR1,0.0,32.659758335345536
RNDR2,0.0,32.65982833534355
RNDR3,0.0,19.786293538219496
RNDR4,0.0,32.658651093964224
RNTR1,0.0,32.659758335344044
RNTR2,0.0,32.65982833534382
RNTR3,0.0,19.78629353821934
RNTR4,0.0,32.65865109396536
RPE,-21.85124466264398,22.679345987327792
RPI,-25.631842253910236,-0.07625526666663518
RZ5PP,0.0,0.0
S7PI,0.00252,0.02323309199527184
SADH,0.0,11.860494248215124
SADT2,0.02330590000002098,0.21486830108436758
SBTPD,0.0,0.0
SBTpts,0.0,0.0
SDPDS,0.03536,6.942164523109715
SDPTA,-6.942164523109715,-0.03535999999996875
SELNPS,0.0,0.0
SERASr,0.0,0.0
SERAT,0.023305899999999997,28.32961490357161
SERD_D,0.0,0.0
SERD_L,0.0,39.62883260500008
SERt2r,-1000.0,0.0
SERt4,0.0,1000.0
SGDS,0.0,11.860494248215208
SGSAD,0.0,11.860494248214973
SHCHCS2,0.0,0.0
SHCHD2,0.0,0.0
SHCHF,0.0,0.0
SHK3Dr,0.04109999999999999,4.990582044459757
SHKK,0.041100000000000005,4.990582044459745
SHSL1,0.014599999999999998,0.13460442187736835
SOTA,0.0,11.860494248214534
SPMDAT1,0.0,0.0
SPMDAT2,0.0,0.0
SPMDabc,0.0,0.0
SPMS,0.0007000000000000001,0.006453636665353273
SPODM,0.0,0.0
SSALx,0.0,15.175638362019342
SSALy,0.0,15.722307850526477
SUCBZL,0.0,0.0
SUCBZS,0.0,0.0
SUCCabc,0.0,109.86625919499082
SUCCt2_2,0.0,329.59877758499175
SUCCt2_3,0.0,164.79938879249556
SUCCt2r,-329.5987775849911,0.0
SUCD1,0.0,40.0
SUCD4,0.0,40.0
SUCFUMt,-329.5987775849711,0.0
SUCOAS,-1000.0,33.089863141321125
SUCpts,0.0,0.0
SULR,0.023305900000000004,0.2148683010843797
SULabc,0.023305900000000046,0.21486830108436694
TAGURr,0.0,0.0
TALA,-10.906332331321778,11.358962993663795
TARTD,0.0,0.0
TARTRt7,0.0,0.0
TAUDO,0.0,0.0
TAURabc,0.0,0.0
TDPADGAT,0.0,0.0
TDPAGTA,0.0,0.0
TDPDRE,0.0,0.0
TDPDRR,0.0,0.0
TDPGDH,0.0,0.0
TDSK,0.00084,0.0077443639984239206
TGBPA,0.0,0.0
THD2,0.0,165.2170703437451
THDPS,0.03536,6.942164523109775
THMDt2_copy1,0.0,1000.0
THMDt2_copy2,-1000.0,0.0
THMabc,0.0,0.0
THRA,-32.6561810939661,18.95210213142002
THRD,0.0,32.65332213706822
THRD_L,0.027600000000000003,14.978486424104803
THRS,0.0,19.00380213142021
THRabc,0.0,109.86625919499488
THRt2r,-1000.0,0.0
THRt4,0.0,1000.0
THZPSN,0.0,0.0
TKT1,-10.903812331321774,11.361482993663799
TKT2,-10.947432331321693,11.317862993663766
TMAOR1,0.0,0.0
TMAOR1e,0.0,0.0
TMAOR2,0.0,0.0
TMAOR2e,0.0,0.0
TMDK1,0.0,82.39969439624909
TMDPP,0.0,0.0
TMDS,0.00247,4.547195850863289
TMK,0.0,0.0
TMPK,0.0,0.0
TMPPP,0.0,0.0
TPI,-26.610388935070205,9.875659733333123
TRDR,0.0333259,32.6895069939643
TRE6PH,0.0,41.19984719812578
TRE6PP,0.0,27.466564798752234
TRE6PS,0.0,41.19984719812578
TREH,0.0,27.466564798752234
TREHe,0.0,0.0
TREpts,0.0,0.0
TRPAS2,-3.8853693024134373,39.62343260500802
TRPS1,0.0,4.453595025281882
TRPS2,0.0,39.628832605007666
TRPS3,0.0,4.707213055502488
TRPt2r,-3.8799693024134285,0.0
TRSARr,0.0,15.70544791986877
TSULabc,0.0,0.0
TTDCAt2,0.0,0.0
TYRTA,-4.962582044460532,-0.01310000000000855
TYRt2r,-4.949482044459728,0.0
U23GAAT,0.00168,0.015488727996847834
UAAGDS,0.0027600000000000003,0.025445767423392864
UACMAMO,0.0,0.0
UAG2E,0.0,0.0
UAGAAT,0.0016799999999648207,0.015488727996847843
UAGCVT,0.0027600000000000003,0.025445767423392336
UAGDP,0.007200000000000001,0.06638026284363366
UAGPT3,0.0027600000000000003,0.025445767423392895
UAMAGS,0.0027600000000000003,0.025445767423393
UAMAS,0.0027600000000000003,0.025445767423392968
UAPGR,0.0027600000000000003,0.025445767423392874
UDCPDP,0.0027600000000000003,0.0254457674233929
UDCPDPS,0.0,0.0
UDPG4E,0.0,0.0
UDPGALM,0.0,0.0
UDPGD,0.0,0.0
UGLT,0.0,0.0
UGLYCH,0.0,0.0
UGMDDS,0.0027600000000000003,0.02544576742339297
UHGADA,0.00168,0.015488727996847957
UMPK,0.03264000000001488,42.55802239179661
UNK3,0.0007000000000000001,0.006453636665353269
UPP3MT,0.0,0.0
UPP3S,0.0,0.0
UPPDC1,0.0,0.0
UPPRT,0.0,41.22569719812503
URAt2_copy1,0.0,1000.0
URAt2_copy2,-1000.0,0.0
UREAt,-9.700342661295736,0.0
URIDK2r,-32.65865109397199,41.197377198128606
URIK2,0.0,82.45139439627451
URIt2_copy1,0.0,1000.0
URIt2_copy2,-1000.0,0.0
USHD,0.00084,0.00774436399842373
VALTA,-9.075157529892977,999.90272
VALabc,0.0,109.86625919503099
VALt2r,-109.86625919503099,0.0
VPAMTr,0.0,999.94292
X5PL3E,0.0,0.0
XANt,-329.59877758503274,0.0
XANt2,0.0,329.5987775850895
XPPT,0.0,41.199847198125255
XTSNt2,-4.649190699931467,0.0
XYLI1,0.0,0.0
XYLI2,0.0,0.0
XYLK,0.0,0.0
XYLabc,0.0,0.0
XYLt2,0.0,0.0
