EX_co2_e,EX_glc__D_e_rev,EX_h2o_e,EX_h_e,EX_nh4_e_rev,EX_o2_e_rev,EX_pi_e_rev
EX_co2_e,EX_etoh_e,EX_for_e,EX_glc__D_e_rev,EX_h_e,EX_nh4_e_rev,EX_pi_e_rev
EX_etoh_e,EX_glc__D_e_rev,EX_h2o_e,EX_h_e,EX_nh4_e_rev,EX_pi_e_rev,EX_succ_e
EX_etoh_e,EX_for_e,EX_glc__D_e_rev,EX_h_e,EX_nh4_e_rev,EX_pi_e_rev,EX_succ_e
EX_glc__D_e_rev,EX_h2o_e,EX_h_e,EX_nh4_e_rev,EX_o2_e_rev,EX_pi_e_rev,EX_succ_e
EX_ac_e,EX_etoh_e,EX_for_e,EX_glc__D_e_rev,EX_glu__L_e,EX_h_e,EX_nh4_e_rev,EX_pi_e_rev
EX_ac_e,EX_for_e,EX_glc__D_e_rev,EX_h2o_e,EX_h_e,EX_nh4_e_rev,EX_o2_e_rev,EX_pi_e_rev
EX_ac_e,EX_co2_e_rev,EX_glc__D_e_rev,EX_h2o_e,EX_h_e,EX_nh4_e_rev,EX_pi_e_rev,EX_succ_e
EX_ac_e,EX_etoh_e,EX_for_e,EX_glc__D_e_rev,EX_h_e,EX_nh4_e_rev,EX_o2_e_rev,EX_pi_e_rev
EX_ac_e,EX_etoh_e,EX_for_e,EX_glc__D_e_rev,EX_h_e,EX_nh4_e_rev,EX_pi_e_rev,EX_pyr_e
EX_ac_e,EX_etoh_e,EX_for_e,EX_glc__D_e_rev,EX_h2o_e_rev,EX_h_e,EX_nh4_e_rev,EX_pi_e_rev
EX_ac_e,EX_etoh_e,EX_for_e,EX_glc__D_e_rev,EX_h_e,EX_lac__D_e,EX_nh4_e_rev,EX_pi_e_rev
EX_ac_e,EX_acald_e,EX_etoh_e,EX_for_e,EX_glc__D_e_rev,EX_h_e,EX_nh4_e_rev,EX_pi_e_rev
EX_acald_e,EX_for_e,EX_glc__D_e_rev,EX_h2o_e,EX_h_e,EX_nh4_e_rev,EX_o2_e_rev,EX_pi_e_rev
EX_acald_e,EX_akg_e,EX_etoh_e,EX_for_e,EX_glc__D_e_rev,EX_h_e,EX_nh4_e_rev,EX_pi_e_rev
EX_acald_e,EX_co2_e_rev,EX_glc__D_e_rev,EX_h2o_e,EX_h_e,EX_nh4_e_rev,EX_pi_e_rev,EX_succ_e
EX_acald_e,EX_co2_e_rev,EX_for_e,EX_glc__D_e_rev,EX_h2o_e,EX_h_e,EX_nh4_e_rev,EX_pi_e_rev
EX_acald_e,EX_etoh_e,EX_for_e,EX_glc__D_e_rev,EX_h2o_e,EX_h_e,EX_nh4_e_rev,EX_pi_e_rev
EX_akg_e,EX_etoh_e,EX_for_e,EX_glc__D_e_rev,EX_h_e,EX_nh4_e_rev,EX_pi_e_rev,EX_pyr_e
EX_akg_e,EX_for_e,EX_glc__D_e_rev,EX_h2o_e,EX_h_e,EX_nh4_e_rev,EX_o2_e_rev,EX_pi_e_rev
EX_akg_e,EX_etoh_e,EX_for_e,EX_glc__D_e_rev,EX_glu__L_e,EX_h_e,EX_nh4_e_rev,EX_pi_e_rev
EX_akg_e,EX_etoh_e,EX_for_e,EX_glc__D_e_rev,EX_h2o_e_rev,EX_h_e,EX_nh4_e_rev,EX_pi_e_rev
EX_akg_e,EX_etoh_e,EX_for_e,EX_glc__D_e_rev,EX_h_e,EX_lac__D_e,EX_nh4_e_rev,EX_pi_e_rev
EX_akg_e,EX_etoh_e,EX_for_e,EX_glc__D_e_rev,EX_h_e,EX_nh4_e_rev,EX_o2_e_rev,EX_pi_e_rev
EX_co2_e_rev,EX_glc__D_e_rev,EX_h2o_e,EX_h_e,EX_lac__D_e,EX_nh4_e_rev,EX_pi_e_rev,EX_succ_e
EX_co2_e_rev,EX_glc__D_e_rev,EX_h2o_e,EX_h_e,EX_nh4_e_rev,EX_pi_e_rev,EX_pyr_e,EX_succ_e
EX_co2_e_rev,EX_for_e,EX_glc__D_e_rev,EX_h2o_e,EX_h_e,EX_lac__D_e,EX_nh4_e_rev,EX_pi_e_rev
EX_etoh_e,EX_for_e,EX_glc__D_e_rev,EX_h2o_e,EX_h_e,EX_nh4_e_rev,EX_pi_e_rev,EX_pyr_e
EX_etoh_e,EX_for_e,EX_glc__D_e_rev,EX_glu__L_e,EX_h2o_e,EX_h_e,EX_nh4_e_rev,EX_pi_e_rev
EX_etoh_e,EX_for_e,EX_glc__D_e_rev,EX_h2o_e,EX_h_e,EX_lac__D_e,EX_nh4_e_rev,EX_pi_e_rev
EX_for_e,EX_glc__D_e_rev,EX_h2o_e,EX_h_e,EX_lac__D_e,EX_nh4_e_rev,EX_o2_e_rev,EX_pi_e_rev
EX_for_e,EX_glc__D_e_rev,EX_glu__L_e,EX_h2o_e,EX_h_e,EX_nh4_e_rev,EX_o2_e_rev,EX_pi_e_rev
EX_for_e,EX_glc__D_e_rev,EX_h2o_e,EX_h_e,EX_nh4_e_rev,EX_o2_e_rev,EX_pi_e_rev,EX_pyr_e
