mps,mcs,mp_size,subset_size,network_size,dt
1,nan,66,6608,33296,440.72241735458374
2,nan,65,6608,33296,870.8032622337341
3,nan,68,6608,33296,1309.2979543209076
4,nan,68,6608,33296,1740.3746812343597
5,nan,71,6608,33296,2169.429183483124
6,nan,67,6608,33296,2605.747505903244
7,nan,64,6608,33296,3041.250872373581
8,nan,72,6608,33296,3471.7391691207886
9,nan,69,6608,33296,3904.8996500968933
10,nan,60,6608,33296,4334.43124461174
11,nan,74,6608,33296,4767.259173154831
12,nan,71,6608,33296,5197.9266476631165
13,nan,74,6608,33296,5631.919714212418
14,nan,64,6608,33296,6063.694896221161
15,nan,58,6608,33296,6493.068812847137
16,nan,68,6608,33296,6928.746069431305
17,nan,65,6608,33296,7361.016741991043
18,nan,66,6608,33296,7789.553981781006
19,nan,68,6608,33296,8224.41093826294
20,nan,70,6608,33296,8653.732271671295
21,nan,68,6608,33296,9087.306411027908
22,nan,72,6608,33296,9531.110538482666
23,nan,71,6608,33296,9964.368669748306
24,nan,64,6608,33296,10399.031332969666
25,nan,69,6608,33296,10834.857167959213
26,nan,69,6608,33296,11268.827610254288
27,nan,70,6608,33296,11703.918747663498
28,nan,75,6608,33296,12141.405069589615
29,nan,70,6608,33296,12572.963470220566
30,nan,69,6608,33296,13008.026397943497
31,nan,67,6608,33296,13444.140300512314
32,nan,69,6608,33296,13874.657500982285
33,nan,71,6608,33296,14309.731681585312
34,nan,65,6608,33296,14742.531182527542
35,nan,70,6608,33296,15174.568367958069
36,nan,65,6608,33296,15608.160121440887
37,nan,62,6608,33296,16039.053739070892
38,nan,67,6608,33296,16467.58536219597
39,nan,71,6608,33296,16899.736212730408
40,nan,71,6608,33296,17337.58749651909
41,nan,74,6608,33296,17772.25612306595
42,nan,71,6608,33296,18203.36479616165
43,nan,71,6608,33296,18637.914391994476
44,nan,67,6608,33296,19074.063237190247
45,nan,74,6608,33296,19501.89440369606
46,nan,73,6608,33296,19937.557150363922
47,nan,64,6608,33296,20364.917323350906
48,nan,71,6608,33296,20800.15094780922
49,nan,75,6608,33296,21232.73301768303
50,nan,70,6608,33296,21667.65137028694
51,nan,66,6608,33296,22096.639427661896
52,nan,66,6608,33296,22527.172780752182
53,nan,70,6608,33296,22961.43693137169
54,nan,58,6608,33296,23395.713584661484
55,nan,73,6608,33296,23835.027156829834
56,nan,68,6608,33296,24276.00753736496
57,nan,68,6608,33296,24713.644237279892
58,nan,66,6608,33296,25149.19523000717
59,nan,67,6608,33296,25582.303024291992
60,nan,74,6608,33296,26018.657636642456
61,nan,65,6608,33296,26451.53003501892
62,nan,62,6608,33296,26885.641529798508
63,nan,67,6608,33296,27315.231561422348
64,nan,65,6608,33296,27750.22053217888
65,nan,66,6608,33296,28182.37477660179
66,nan,67,6608,33296,28621.777442216873
67,nan,75,6608,33296,29062.822890996933
68,nan,69,6608,33296,29496.462841033936
69,nan,73,6608,33296,29926.94908976555
70,nan,71,6608,33296,30362.933621168137
71,nan,64,6608,33296,30794.59368300438
72,nan,68,6608,33296,31226.77923130989
73,nan,71,6608,33296,31659.61597752571
74,nan,72,6608,33296,32095.18456721306
75,nan,63,6608,33296,32527.666680574417
76,nan,75,6608,33296,32958.063291072845
77,nan,73,6608,33296,33393.17114520073
78,nan,64,6608,33296,33828.413278102875
79,nan,65,6608,33296,34264.86008453369
80,nan,66,6608,33296,34689.162033081055
81,nan,67,6608,33296,35125.09140706062
82,nan,63,6608,33296,35550.9044239521
83,nan,65,6608,33296,35985.765176296234
84,nan,70,6608,33296,36419.88594174385
85,nan,70,6608,33296,36847.84125614166
86,nan,64,6608,33296,37281.00894117355
87,nan,69,6608,33296,37718.69668650627
88,nan,67,6608,33296,38151.58575630188
89,nan,63,6608,33296,38583.922579050064
90,nan,65,6608,33296,39012.743188619614
91,nan,74,6608,33296,39451.621289014816
92,nan,67,6608,33296,39889.19226717949
93,nan,66,6608,33296,40318.70813584328
94,nan,66,6608,33296,40746.59431600571
95,nan,68,6608,33296,41177.76606941223
96,nan,64,6608,33296,41607.51995873451
97,nan,72,6608,33296,42041.17607617378
98,nan,67,6608,33296,42474.927101135254
99,nan,69,6608,33296,42912.225852012634
100,nan,63,6608,33296,43353.2790184021
101,nan,66,6608,33296,43788.266688108444
102,nan,63,6608,33296,44217.67888855934
103,nan,59,6608,33296,44655.45182847977
104,nan,75,6608,33296,45093.92616534233
105,nan,70,6608,33296,45524.64465332031
106,nan,69,6608,33296,45958.25879764557
107,nan,63,6608,33296,46386.634769678116
108,nan,67,6608,33296,46817.97089147568
109,nan,70,6608,33296,47248.559005498886
110,nan,64,6608,33296,47687.160732746124
111,nan,69,6608,33296,48118.88115859032
112,nan,70,6608,33296,48552.75108337402
113,nan,75,6608,33296,48991.93540430069
114,nan,71,6608,33296,49425.50894379616
115,nan,63,6608,33296,49857.3797416687
116,nan,70,6608,33296,50295.199634075165
117,nan,72,6608,33296,50725.09844374657
118,nan,66,6608,33296,51155.01807951927
119,nan,70,6608,33296,51586.26194190979
120,nan,70,6608,33296,52016.55055761337
121,nan,69,6608,33296,52448.97360277176
122,nan,64,6608,33296,52881.47410488129
123,nan,72,6608,33296,53316.27590799332
124,nan,64,6608,33296,53747.00795173645
125,nan,70,6608,33296,54189.1382932663
126,nan,66,6608,33296,54618.918189525604
127,nan,67,6608,33296,55045.457636356354
128,nan,68,6608,33296,55476.2066757679
129,nan,68,6608,33296,55906.79939556122
130,nan,70,6608,33296,56342.815811634064
131,nan,72,6608,33296,56774.68213272095
132,nan,69,6608,33296,57205.044969797134
133,nan,68,6608,33296,57641.955718040466
134,nan,69,6608,33296,58076.07768559456
135,nan,70,6608,33296,58510.03765511513
136,nan,73,6608,33296,58941.5776143074
137,nan,67,6608,33296,59375.554332494736
138,nan,73,6608,33296,59809.7511446476
139,nan,66,6608,33296,60241.358068943024
140,nan,71,6608,33296,60675.12824368477
141,nan,67,6608,33296,61109.65822005272
142,nan,66,6608,33296,61540.52835583687
143,nan,69,6608,33296,61969.426495313644
144,nan,60,6608,33296,62391.705694675446
145,nan,65,6608,33296,62822.01860809326
146,nan,71,6608,33296,63254.61788272858
147,nan,66,6608,33296,63684.852625370026
148,nan,70,6608,33296,64119.25292420387
149,nan,75,6608,33296,64550.390659570694
150,nan,74,6608,33296,64991.78906536102
151,nan,69,6608,33296,65426.766335725784
152,nan,65,6608,33296,65857.63555502892
153,nan,74,6608,33296,66289.27964353561
154,nan,65,6608,33296,66722.52988123894
155,nan,66,6608,33296,67150.97812891006
156,nan,71,6608,33296,67580.83943843842
157,nan,72,6608,33296,68012.91006422043
158,nan,67,6608,33296,68444.75528550148
159,nan,74,6608,33296,68877.14327597618
160,nan,62,6608,33296,69312.73113656044
161,nan,70,6608,33296,69741.36834979057
162,nan,67,6608,33296,70171.73829483986
163,nan,70,6608,33296,70609.10554075241
164,nan,68,6608,33296,71036.9770629406
165,nan,74,6608,33296,71467.16479682922
166,nan,66,6608,33296,71906.81903123856
167,nan,68,6608,33296,72334.8499341011
168,nan,69,6608,33296,72766.62962818146
169,nan,68,6608,33296,73199.4295463562
170,nan,77,6608,33296,73636.66186475754
171,nan,68,6608,33296,74068.60084939003
172,nan,66,6608,33296,74498.51801991463
173,nan,71,6608,33296,74924.27448964119
174,nan,68,6608,33296,75357.44407725334
175,nan,68,6608,33296,75786.2095952034
176,nan,66,6608,33296,76221.87981820107
177,nan,75,6608,33296,76658.09700226784
178,nan,66,6608,33296,77091.87509536743
179,nan,63,6608,33296,77523.5566315651
180,nan,70,6608,33296,77952.55426263809
181,nan,69,6608,33296,78386.79347133636
182,nan,72,6608,33296,78823.76835799217
183,nan,64,6608,33296,79252.3010995388
184,nan,67,6608,33296,79681.95133972168
185,nan,75,6608,33296,80118.89765644073
186,nan,67,6608,33296,80543.55418634415
187,nan,68,6608,33296,80978.14769816399
188,nan,69,6608,33296,81409.96356964111
189,nan,69,6608,33296,81839.06667876244
190,nan,75,6608,33296,82276.02081775665
191,nan,67,6608,33296,82710.5372850895
192,nan,66,6608,33296,83145.22253513336
193,nan,65,6608,33296,83585.80761551857
194,nan,74,6608,33296,84022.85280227661
195,nan,68,6608,33296,84457.51210069656
196,nan,64,6608,33296,84887.53243350983
197,nan,62,6608,33296,85314.53818535805
198,nan,63,6608,33296,85746.74664211273
199,nan,67,6608,33296,86183.10494995117
200,nan,69,6608,33296,86615.76718091965
201,nan,67,6608,33296,87049.56707119942
202,nan,73,6608,33296,87487.28125309944
203,nan,65,6608,33296,87920.89134597778
204,nan,65,6608,33296,88352.11461019516
205,nan,73,6608,33296,88792.81817340851
206,nan,64,6608,33296,89224.8193051815
207,nan,73,6608,33296,89666.01741147041
208,nan,68,6608,33296,90100.31291151047
209,nan,67,6608,33296,90527.63099956512
210,nan,71,6608,33296,90966.10266709328
211,nan,68,6608,33296,91394.5779929161
212,nan,67,6608,33296,91826.02486300468
213,nan,66,6608,33296,92256.33789992332
214,nan,68,6608,33296,92687.89988780022
215,nan,71,6608,33296,93114.92792463303
216,nan,68,6608,33296,93554.87122392654
217,nan,67,6608,33296,93987.70280003548
218,nan,68,6608,33296,94419.41214513779
219,nan,69,6608,33296,94848.82734847069
220,nan,67,6608,33296,95283.03331780434
221,nan,70,6608,33296,95712.86693120003
222,nan,64,6608,33296,96141.42448186874
223,nan,68,6608,33296,96573.73979115486
224,nan,70,6608,33296,97009.28226447105
225,nan,66,6608,33296,97442.80412817001
226,nan,72,6608,33296,97877.97452759743
227,nan,67,6608,33296,98312.19587421417
228,nan,72,6608,33296,98745.99038076401
229,nan,69,6608,33296,99177.96757984161
230,nan,65,6608,33296,99605.10278129578
231,nan,65,6608,33296,100034.76719141006
232,nan,68,6608,33296,100465.60022711754
233,nan,69,6608,33296,100897.92776298523
234,nan,69,6608,33296,101327.11702036858
235,nan,67,6608,33296,101761.43297457695
236,nan,60,6608,33296,102193.71810436249
237,nan,64,6608,33296,102621.73519277573
238,nan,65,6608,33296,103052.58113503456
239,nan,67,6608,33296,103486.06640386581
240,nan,74,6608,33296,103919.58254146576
241,nan,67,6608,33296,104355.45746660233
242,nan,70,6608,33296,104790.04387784004
243,nan,68,6608,33296,105218.4354250431
244,nan,68,6608,33296,105651.61250209808
245,nan,66,6608,33296,106095.31870889664
246,nan,67,6608,33296,106523.66881895065
247,nan,77,6608,33296,106959.67493915558
248,nan,67,6608,33296,107395.47381877899
249,nan,64,6608,33296,107829.11387658119
250,nan,67,6608,33296,108268.7508649826
251,nan,64,6608,33296,108700.9290792942
252,nan,65,6608,33296,109131.89956688881
253,nan,66,6608,33296,109560.07015275955
254,nan,66,6608,33296,109987.74400281906
255,nan,68,6608,33296,110417.74387907982
256,nan,68,6608,33296,110851.44435763359
257,nan,65,6608,33296,111285.29702568054
258,nan,70,6608,33296,111711.45338487625
259,nan,61,6608,33296,112137.71969914436
260,nan,64,6608,33296,112563.76744127274
261,nan,68,6608,33296,113004.16622161865
262,nan,65,6608,33296,113434.41224503517
263,nan,65,6608,33296,113869.81095767021
264,nan,73,6608,33296,114306.23882579803
265,nan,73,6608,33296,114739.9734222889
266,nan,66,6608,33296,115171.40977811813
267,nan,68,6608,33296,115599.08548760414
268,nan,69,6608,33296,116039.97776913643
269,nan,71,6608,33296,116475.75964188576
270,nan,69,6608,33296,116913.22250962257
271,nan,66,6608,33296,117345.50199055672
272,nan,62,6608,33296,117781.02669239044
273,nan,67,6608,33296,118218.32576036453
274,nan,69,6608,33296,118654.09608054161
275,nan,61,6608,33296,119082.4427614212
276,nan,67,6608,33296,119516.28934264183
277,nan,64,6608,33296,119949.93780779839
278,nan,65,6608,33296,120385.46649575233
279,nan,69,6608,33296,120825.12126851082
280,nan,72,6608,33296,121262.19467830658
281,nan,65,6608,33296,121687.03324341774
282,nan,65,6608,33296,122114.01352715492
283,nan,68,6608,33296,122544.87739634514
284,nan,65,6608,33296,122974.29624247551
285,nan,73,6608,33296,123414.41234254837
286,nan,73,6608,33296,123842.84364652634
287,nan,67,6608,33296,124268.5940861702
288,nan,68,6608,33296,124698.57715249062
289,nan,70,6608,33296,125130.75502038002
290,nan,64,6608,33296,125567.06963348389
291,nan,63,6608,33296,125996.94701957703
292,nan,69,6608,33296,126427.18776106834
293,nan,69,6608,33296,126861.89352822304
294,nan,67,6608,33296,127296.46753573418
295,nan,70,6608,33296,127730.02841854095
296,nan,68,6608,33296,128160.5482378006
297,nan,63,6608,33296,128589.39184522629
298,nan,69,6608,33296,129019.42135691643
299,nan,75,6608,33296,129449.41861701012
300,nan,72,6608,33296,129874.70496273041
301,nan,65,6608,33296,130308.54697060585
302,nan,69,6608,33296,130741.81615924835
303,nan,71,6608,33296,131175.7817337513
304,nan,65,6608,33296,131612.8473854065
305,nan,70,6608,33296,132039.7764942646
306,nan,69,6608,33296,132472.42214679718
307,nan,61,6608,33296,132902.81864881516
308,nan,69,6608,33296,133330.51860904694
309,nan,70,6608,33296,133759.58503055573
310,nan,70,6608,33296,134189.30064702034
311,nan,65,6608,33296,134616.03163933754
312,nan,63,6608,33296,135046.1549577713
313,nan,66,6608,33296,135478.48977851868
314,nan,71,6608,33296,135909.58056759834
315,nan,67,6608,33296,136341.93784499168
316,nan,72,6608,33296,136778.73353862762
317,nan,69,6608,33296,137210.6529610157
318,nan,69,6608,33296,137642.57199931145
319,nan,65,6608,33296,138067.2243499756
320,nan,66,6608,33296,138506.6698768139
321,nan,65,6608,33296,138938.41565036774
322,nan,69,6608,33296,139367.55155825615
323,nan,65,6608,33296,139796.6346065998
324,nan,63,6608,33296,140229.96978735924
325,nan,72,6608,33296,140659.02087688446
326,nan,72,6608,33296,141089.0933585167
327,nan,67,6608,33296,141524.17365908623
328,nan,70,6608,33296,141955.49293231964
329,nan,79,6608,33296,142389.37778949738
330,nan,65,6608,33296,142823.0701007843
331,nan,67,6608,33296,143257.05006599426
332,nan,64,6608,33296,143682.22839808464
333,nan,61,6608,33296,144118.33671331406
334,nan,68,6608,33296,144548.97401547432
335,nan,69,6608,33296,144979.6271674633
336,nan,66,6608,33296,145418.08263468742
337,nan,68,6608,33296,145858.05148935318
338,nan,67,6608,33296,146288.90788340569
339,nan,71,6608,33296,146717.89754199982
340,nan,66,6608,33296,147148.36965680122
341,nan,68,6608,33296,147577.10896348953
342,nan,68,6608,33296,148007.28453207016
343,nan,72,6608,33296,148437.13589382172
344,nan,70,6608,33296,148867.37037873268
345,nan,63,6608,33296,149298.64927887917
346,nan,69,6608,33296,149730.50268125534
347,nan,65,6608,33296,150158.55835676193
348,nan,67,6608,33296,150593.7414751053
349,nan,71,6608,33296,151021.6887588501
350,nan,68,6608,33296,151456.2836649418
351,nan,67,6608,33296,151891.8614923954
352,nan,68,6608,33296,152320.60027432442
353,nan,64,6608,33296,152749.9912686348
354,nan,76,6608,33296,153184.79038906097
355,nan,67,6608,33296,153618.54883098602
356,nan,65,6608,33296,154050.7479979992
357,nan,71,6608,33296,154489.20445489883
358,nan,66,6608,33296,154918.68512129784
359,nan,75,6608,33296,155353.15306663513
360,nan,65,6608,33296,155778.40735054016
361,nan,71,6608,33296,156213.91453313828
362,nan,75,6608,33296,156643.2515721321
363,nan,72,6608,33296,157076.57936024666
364,nan,65,6608,33296,157512.8744404316
365,nan,68,6608,33296,157942.96643471718
366,nan,65,6608,33296,158375.61050510406
367,nan,72,6608,33296,158807.41121292114
368,nan,70,6608,33296,159243.24601721764
369,nan,65,6608,33296,159671.94283652306
370,nan,68,6608,33296,160105.142878294
371,nan,70,6608,33296,160537.09327292442
372,nan,70,6608,33296,160973.35280919075
373,nan,72,6608,33296,161406.93177223206
374,nan,71,6608,33296,161836.48402428627
375,nan,70,6608,33296,162267.461769104
376,nan,73,6608,33296,162700.82080578804
377,nan,66,6608,33296,163131.61816191673
378,nan,66,6608,33296,163567.93090248108
379,nan,72,6608,33296,164003.32205677032
380,nan,72,6608,33296,164438.24460577965
381,nan,70,6608,33296,164869.90220189095
382,nan,76,6608,33296,165307.31634902954
383,nan,70,6608,33296,165739.45913290977
384,nan,68,6608,33296,166173.8896393776
385,nan,65,6608,33296,166607.1009809971
386,nan,67,6608,33296,167046.68464493752
387,nan,76,6608,33296,167485.13041114807
388,nan,71,6608,33296,167934.02987146378
389,nan,65,6608,33296,168368.97884845734
390,nan,70,6608,33296,168804.1751768589
391,nan,61,6608,33296,169237.15296506882
392,nan,76,6608,33296,169677.92949008942
393,nan,58,6608,33296,170109.65275621414
394,nan,69,6608,33296,170561.77946591377
395,nan,64,6608,33296,171000.87856817245
396,nan,72,6608,33296,171443.63322019577
397,nan,65,6608,33296,171881.60740232468
398,nan,69,6608,33296,172317.10309576988
399,nan,71,6608,33296,172751.71006822586
400,nan,71,6608,33296,173194.31615281105
401,nan,62,6608,33296,173630.37613081932
402,nan,72,6608,33296,174066.5341641903
403,nan,74,6608,33296,174509.09820485115
404,nan,76,6608,33296,174955.6337299347
405,nan,74,6608,33296,175395.0096411705
406,nan,69,6608,33296,175839.1931655407
407,nan,70,6608,33296,176273.19909715652
408,nan,67,6608,33296,176713.6225757599
409,nan,68,6608,33296,177151.38715291023
410,nan,67,6608,33296,177580.94061899185
411,nan,70,6608,33296,178009.3462483883
412,nan,67,6608,33296,178440.79863262177
413,nan,69,6608,33296,178878.90096783638
414,nan,62,6608,33296,179304.51365208626
415,nan,69,6608,33296,179733.5729777813
416,nan,65,6608,33296,180165.60749149323
417,nan,67,6608,33296,180599.53783655167
418,nan,66,6608,33296,181033.35742640495
419,nan,79,6608,33296,181469.8455734253
420,nan,71,6608,33296,181903.97110414505
421,nan,67,6608,33296,182334.97957468033
422,nan,65,6608,33296,182771.0993294716
423,nan,69,6608,33296,183198.58420562744
424,nan,74,6608,33296,183631.55434584618
425,nan,66,6608,33296,184056.56590127945
426,nan,70,6608,33296,184483.74348282814
427,nan,69,6608,33296,184910.93273830414
428,nan,67,6608,33296,185341.5243959427
429,nan,62,6608,33296,185778.05936574936
430,nan,68,6608,33296,186208.47933340073
431,nan,72,6608,33296,186642.00728559494
432,nan,70,6608,33296,187071.1567003727
433,nan,62,6608,33296,187501.24906277657
434,nan,65,6608,33296,187929.16051387787
435,nan,64,6608,33296,188361.40835165977
436,nan,69,6608,33296,188795.05770635605
437,nan,61,6608,33296,189225.24617385864
438,nan,66,6608,33296,189651.78279685974
439,nan,70,6608,33296,190081.23731160164
440,nan,72,6608,33296,190512.45288705826
441,nan,68,6608,33296,190940.95519709587
442,nan,67,6608,33296,191376.674793005
443,nan,70,6608,33296,191811.6076836586
444,nan,66,6608,33296,192242.54128289223
445,nan,63,6608,33296,192669.2509675026
446,nan,68,6608,33296,193095.3008954525
447,nan,72,6608,33296,193524.0033812523
448,nan,70,6608,33296,193948.5718433857
449,nan,64,6608,33296,194376.77428150177
450,nan,65,6608,33296,194802.7155957222
451,nan,66,6608,33296,195232.5156366825
452,nan,69,6608,33296,195659.93653512
453,nan,69,6608,33296,196084.69134116173
454,nan,69,6608,33296,196521.99374485016
455,nan,72,6608,33296,196953.35948967934
456,nan,73,6608,33296,197391.66127490997
457,nan,64,6608,33296,197821.07247519493
458,nan,65,6608,33296,198256.63543319702
459,nan,64,6608,33296,198680.58743548393
460,nan,73,6608,33296,199113.49345827103
461,nan,72,6608,33296,199545.55861902237
462,nan,68,6608,33296,199976.99009633064
463,nan,64,6608,33296,200402.22763895988
464,nan,69,6608,33296,200838.3357629776
465,nan,63,6608,33296,201266.58134770393
466,nan,70,6608,33296,201698.89755940437
467,nan,68,6608,33296,202128.96006917953
468,nan,60,6608,33296,202560.3176753521
469,nan,65,6608,33296,202987.8734846115
470,nan,68,6608,33296,203420.72701334953
471,nan,68,6608,33296,203847.89542603493
472,nan,65,6608,33296,204274.87349557877
473,nan,68,6608,33296,204709.378667593
474,nan,61,6608,33296,205138.04173779488
475,nan,72,6608,33296,205570.40520048141
476,nan,70,6608,33296,206006.12435913086
477,nan,68,6608,33296,206439.89524126053
478,nan,72,6608,33296,206875.68321490288
479,nan,66,6608,33296,207299.70351290703
480,nan,69,6608,33296,207729.48048138618
481,nan,63,6608,33296,208159.28153443336
482,nan,59,6608,33296,208592.8459198475
483,nan,67,6608,33296,209028.8936624527
484,nan,64,6608,33296,209454.63585662842
485,nan,66,6608,33296,209891.17667388916
486,nan,70,6608,33296,210313.89816260338
487,nan,59,6608,33296,210739.84147524834
488,nan,71,6608,33296,211178.80723404884
489,nan,67,6608,33296,211602.70178174973
490,nan,65,6608,33296,212031.80163145065
491,nan,74,6608,33296,212459.6439127922
492,nan,68,6608,33296,212893.1467139721
493,nan,65,6608,33296,213323.64525032043
494,nan,77,6608,33296,213761.01549696922
495,nan,67,6608,33296,214186.45794415474
496,nan,74,6608,33296,214618.5688583851
497,nan,68,6608,33296,215046.90260648727
498,nan,71,6608,33296,215472.261033535
499,nan,72,6608,33296,215902.45154976845
500,nan,67,6608,33296,216335.00496983528
501,nan,62,6608,33296,216762.39988946915
502,nan,68,6608,33296,217199.18471169472
503,nan,75,6608,33296,217630.54643940926
504,nan,65,6608,33296,218064.65249562263
505,nan,66,6608,33296,218495.31448864937
506,nan,62,6608,33296,218923.4181110859
507,nan,67,6608,33296,219354.57504439354
508,nan,69,6608,33296,219780.13646125793
509,nan,67,6608,33296,220209.07862210274
510,nan,63,6608,33296,220636.42875432968
511,nan,64,6608,33296,221061.1705379486
512,nan,71,6608,33296,221498.3912422657
513,nan,69,6608,33296,221928.45885252953
514,nan,70,6608,33296,222362.91298937798
515,nan,67,6608,33296,222791.04154992104
516,nan,71,6608,33296,223219.16731023788
517,nan,63,6608,33296,223646.4357123375
518,nan,70,6608,33296,224072.33439850807
519,nan,68,6608,33296,224500.0903148651
520,nan,71,6608,33296,224925.39803028107
521,nan,65,6608,33296,225354.04850530624
522,nan,67,6608,33296,225784.78471899033
523,nan,67,6608,33296,226218.59073519707
524,nan,72,6608,33296,226652.10443139076
525,nan,69,6608,33296,227084.4013249874
526,nan,62,6608,33296,227520.29176211357
527,nan,68,6608,33296,227947.78701400757
528,nan,67,6608,33296,228375.56615662575
529,nan,68,6608,33296,228800.53254032135
530,nan,75,6608,33296,229234.52993869781
531,nan,67,6608,33296,229667.05773711205
532,nan,71,6608,33296,230090.81621026993
533,nan,59,6608,33296,230515.00000619888
534,nan,70,6608,33296,230941.85214567184
535,nan,68,6608,33296,231376.7401459217
536,nan,68,6608,33296,231802.4049539566
537,nan,70,6608,33296,232235.82372689247
538,nan,71,6608,33296,232665.75226974487
539,nan,73,6608,33296,233098.4966583252
540,nan,67,6608,33296,233530.8620095253
541,nan,65,6608,33296,233952.97406864166
542,nan,66,6608,33296,234379.91712665558
543,nan,73,6608,33296,234811.3258948326
544,nan,68,6608,33296,235245.57633924484
545,nan,67,6608,33296,235670.64844417572
546,nan,64,6608,33296,236099.17752575874
547,nan,59,6608,33296,236529.02529716492
548,nan,67,6608,33296,236961.52013254166
549,nan,73,6608,33296,237392.5309638977
550,nan,65,6608,33296,237823.02850031853
551,nan,66,6608,33296,238251.08740615845
552,nan,70,6608,33296,238691.71878242493
553,nan,60,6608,33296,239118.53631734848
554,nan,71,6608,33296,239546.20283412933
555,nan,66,6608,33296,239972.2737236023
556,nan,66,6608,33296,240403.27533459663
557,nan,70,6608,33296,240840.06253695488
558,nan,70,6608,33296,241269.5316491127
559,nan,71,6608,33296,241703.56855726242
560,nan,68,6608,33296,242135.29022336006
561,nan,74,6608,33296,242566.06302833557
562,nan,68,6608,33296,243000.46879148483
563,nan,70,6608,33296,243430.12992215157
564,nan,67,6608,33296,243859.05187869072
565,nan,72,6608,33296,244289.9764444828
566,nan,68,6608,33296,244721.33130788803
567,nan,75,6608,33296,245151.01986193657
568,nan,69,6608,33296,245587.75470376015
569,nan,66,6608,33296,246023.74759936333
570,nan,69,6608,33296,246456.24402284622
571,nan,69,6608,33296,246883.92335796356
572,nan,68,6608,33296,247313.9317548275
573,nan,74,6608,33296,247751.62220811844
574,nan,69,6608,33296,248182.01442456245
575,nan,71,6608,33296,248617.44493722916
576,nan,64,6608,33296,249041.89389824867
577,nan,68,6608,33296,249474.82213974
578,nan,64,6608,33296,249911.07784295082
579,nan,60,6608,33296,250341.23879933357
580,nan,67,6608,33296,250778.62328124046
581,nan,67,6608,33296,251202.70233035088
582,nan,69,6608,33296,251634.41017103195
583,nan,71,6608,33296,252067.25050807
584,nan,71,6608,33296,252496.38925385475
585,nan,73,6608,33296,252930.38465428352
586,nan,74,6608,33296,253361.88168525696
587,nan,70,6608,33296,253792.77781009674
588,nan,66,6608,33296,254221.75138568878
589,nan,67,6608,33296,254655.32760882378
590,nan,71,6608,33296,255090.2313094139
591,nan,67,6608,33296,255522.7139043808
592,nan,67,6608,33296,255954.4715282917
593,nan,70,6608,33296,256382.97199606895
594,nan,74,6608,33296,256815.3942952156
595,nan,67,6608,33296,257248.87056326866
596,nan,69,6608,33296,257684.21624660492
597,nan,64,6608,33296,258117.44667458534
598,nan,71,6608,33296,258544.15072083473
599,nan,70,6608,33296,258981.37735772133
600,nan,63,6608,33296,259409.16530156136
601,nan,73,6608,33296,259837.62541937828
602,nan,68,6608,33296,260265.64978432655
603,nan,71,6608,33296,260689.70842051506
604,nan,68,6608,33296,261115.90459418297
605,nan,65,6608,33296,261547.92732810974
606,nan,70,6608,33296,261984.09452819824
607,nan,67,6608,33296,262411.0874364376
608,nan,67,6608,33296,262842.3228788376
609,nan,64,6608,33296,263269.62652397156
610,nan,69,6608,33296,263699.71984887123
611,nan,68,6608,33296,264128.6359682083
612,nan,72,6608,33296,264555.8256418705
613,nan,70,6608,33296,264986.11861371994
614,nan,71,6608,33296,265419.9702498913
615,nan,67,6608,33296,265856.07214331627
616,nan,73,6608,33296,266286.37039518356
617,nan,70,6608,33296,266714.5505948067
618,nan,72,6608,33296,267156.32029795647
619,nan,65,6608,33296,267588.75263619423
620,nan,69,6608,33296,268025.15235877037
621,nan,71,6608,33296,268464.5138850212
622,nan,64,6608,33296,268895.5840446949
623,nan,72,6608,33296,269333.00522732735
624,nan,66,6608,33296,269774.310133934
625,nan,63,6608,33296,270217.31223750114
626,nan,65,6608,33296,270652.5164606571
627,nan,67,6608,33296,271089.6685848236
628,nan,64,6608,33296,271526.1017022133
629,nan,66,6608,33296,271958.5980308056
630,nan,68,6608,33296,272382.1118605137
631,nan,67,6608,33296,272814.32175302505
632,nan,64,6608,33296,273247.4501154423
633,nan,71,6608,33296,273682.01584768295
634,nan,66,6608,33296,274112.99682068825
635,nan,68,6608,33296,274544.64935946465
636,nan,65,6608,33296,274971.0349342823
637,nan,70,6608,33296,275409.23359918594
638,nan,65,6608,33296,275839.6866030693
639,nan,71,6608,33296,276272.5330939293
640,nan,69,6608,33296,276703.77786135674
641,nan,66,6608,33296,277133.6213862896
642,nan,73,6608,33296,277560.91103100777
643,nan,69,6608,33296,277995.0900170803
644,nan,70,6608,33296,278426.00990748405
645,nan,66,6608,33296,278863.1188213825
646,nan,77,6608,33296,279294.9714975357
647,nan,69,6608,33296,279728.91357827187
648,nan,71,6608,33296,280163.29038882256
649,nan,67,6608,33296,280598.762134552
650,nan,66,6608,33296,281034.3690755367
651,nan,69,6608,33296,281461.432543993
652,nan,65,6608,33296,281888.99181079865
653,nan,68,6608,33296,282322.26222515106
654,nan,72,6608,33296,282759.97519278526
655,nan,69,6608,33296,283187.2445793152
656,nan,67,6608,33296,283617.8571536541
657,nan,76,6608,33296,284054.6292541027
658,nan,66,6608,33296,284480.60323524475
659,nan,71,6608,33296,284912.8429956436
660,nan,67,6608,33296,285339.90751361847
661,nan,69,6608,33296,285772.5758974552
662,nan,70,6608,33296,286201.7766520977
663,nan,72,6608,33296,286631.9465370178
664,nan,66,6608,33296,287064.8822824955
665,nan,70,6608,33296,287498.26500701904
666,nan,72,6608,33296,287934.5188691616
667,nan,74,6608,33296,288360.82039141655
668,nan,59,6608,33296,288798.67329502106
669,nan,69,6608,33296,289240.4398217201
670,nan,69,6608,33296,289670.8087999821
671,nan,67,6608,33296,290103.60412335396
672,nan,66,6608,33296,290529.4452075958
673,nan,70,6608,33296,290957.6683063507
674,nan,72,6608,33296,291392.0409374237
675,nan,70,6608,33296,291829.9279162884
676,nan,72,6608,33296,292257.7135951519
677,nan,67,6608,33296,292686.7998518944
678,nan,67,6608,33296,293116.06403422356
679,nan,72,6608,33296,293551.1014111042
680,nan,64,6608,33296,293982.7638242245
681,nan,66,6608,33296,294415.88821196556
682,nan,67,6608,33296,294842.8729236126
683,nan,70,6608,33296,295277.2512335777
684,nan,67,6608,33296,295706.5009987354
685,nan,73,6608,33296,296137.4095363617
686,nan,70,6608,33296,296571.98071193695
687,nan,64,6608,33296,297001.1235613823
688,nan,69,6608,33296,297432.00196290016
689,nan,68,6608,33296,297863.18150901794
690,nan,66,6608,33296,298298.2224292755
691,nan,70,6608,33296,298725.2500293255
692,nan,71,6608,33296,299160.7193763256
693,nan,71,6608,33296,299591.3024339676
694,nan,67,6608,33296,300021.61929893494
695,nan,65,6608,33296,300460.9798588753
696,nan,71,6608,33296,300895.747882843
697,nan,67,6608,33296,301326.9541475773
698,nan,67,6608,33296,301764.1052174568
699,nan,65,6608,33296,302197.74187636375
700,nan,63,6608,33296,302632.6989707947
701,nan,65,6608,33296,303063.1648476124
702,nan,62,6608,33296,303498.7685537338
703,nan,66,6608,33296,303928.4311261177
704,nan,75,6608,33296,304360.98864865303
705,nan,71,6608,33296,304790.82865810394
706,nan,70,6608,33296,305221.9961051941
707,nan,68,6608,33296,305655.41145420074
708,nan,65,6608,33296,306087.99672174454
709,nan,70,6608,33296,306524.4589076042
710,nan,68,6608,33296,306955.7014348507
711,nan,68,6608,33296,307382.01506638527
712,nan,68,6608,33296,307812.67957639694
713,nan,69,6608,33296,308246.4943768978
714,nan,67,6608,33296,308677.4379429817
715,nan,68,6608,33296,309112.5366072655
716,nan,68,6608,33296,309549.2293496132
717,nan,69,6608,33296,309984.2349011898
718,nan,66,6608,33296,310416.99418091774
719,nan,71,6608,33296,310849.7261276245
720,nan,67,6608,33296,311283.9722456932
721,nan,66,6608,33296,311717.9994351864
722,nan,66,6608,33296,312157.80867409706
723,nan,67,6608,33296,312601.9083881378
724,nan,65,6608,33296,313043.67859339714
725,nan,69,6608,33296,313478.4553518295
726,nan,74,6608,33296,313912.52409768105
727,nan,72,6608,33296,314341.4908223152
728,nan,66,6608,33296,314776.64343094826
729,nan,69,6608,33296,315215.8275141716
730,nan,69,6608,33296,315651.5416021347
731,nan,69,6608,33296,316090.3350920677
732,nan,69,6608,33296,316518.10565137863
733,nan,65,6608,33296,316945.64452934265
734,nan,69,6608,33296,317379.6545276642
735,nan,61,6608,33296,317811.17066812515
736,nan,61,6608,33296,318242.1811995506
737,nan,64,6608,33296,318673.3519997597
738,nan,64,6608,33296,319111.2573466301
739,nan,69,6608,33296,319540.94009685516
740,nan,67,6608,33296,319979.38504576683
741,nan,72,6608,33296,320420.47800159454
742,nan,69,6608,33296,320853.08607912064
743,nan,71,6608,33296,321285.10760235786
744,nan,64,6608,33296,321715.2794034481
745,nan,67,6608,33296,322148.24041342735
746,nan,70,6608,33296,322588.4190762043
747,nan,65,6608,33296,323020.21757268906
748,nan,66,6608,33296,323453.752702713
749,nan,66,6608,33296,323890.24446582794
750,nan,69,6608,33296,324330.53929042816
751,nan,68,6608,33296,324762.6061863899
752,nan,67,6608,33296,325195.9025762081
753,nan,63,6608,33296,325629.4447219372
754,nan,69,6608,33296,326068.4141216278
755,nan,71,6608,33296,326502.65642786026
756,nan,68,6608,33296,326936.8799455166
757,nan,72,6608,33296,327388.7223126888
758,nan,67,6608,33296,327827.8622927666
759,nan,70,6608,33296,328256.98819851875
760,nan,68,6608,33296,328687.58292222023
761,nan,68,6608,33296,329128.0088469982
762,nan,72,6608,33296,329561.3753733635
763,nan,69,6608,33296,329994.78990983963
764,nan,71,6608,33296,330430.4387514591
765,nan,68,6608,33296,330862.0768766403
766,nan,61,6608,33296,331300.21081233025
767,nan,67,6608,33296,331733.2779369354
768,nan,74,6608,33296,332166.8801329136
769,nan,67,6608,33296,332605.35243082047
770,nan,69,6608,33296,333042.4911751747
771,nan,59,6608,33296,333477.23505330086
772,nan,70,6608,33296,333910.3832194805
773,nan,71,6608,33296,334347.2084724903
774,nan,70,6608,33296,334789.8464307785
775,nan,66,6608,33296,335217.1794099808
776,nan,70,6608,33296,335648.965631485
777,nan,72,6608,33296,336082.98312711716
778,nan,72,6608,33296,336520.8878889084
779,nan,68,6608,33296,336951.7628540993
780,nan,70,6608,33296,337385.8387391567
781,nan,68,6608,33296,337810.80894804
782,nan,67,6608,33296,338240.29424738884
783,nan,65,6608,33296,338668.576059103
784,nan,66,6608,33296,339098.6962258816
785,nan,68,6608,33296,339534.9246842861
786,nan,70,6608,33296,339968.2157790661
787,nan,65,6608,33296,340398.2781949043
788,nan,69,6608,33296,340829.056466341
789,nan,70,6608,33296,341257.4263045788
790,nan,67,6608,33296,341684.2786471844
791,nan,68,6608,33296,342123.06042933464
792,nan,68,6608,33296,342555.5878968239
793,nan,72,6608,33296,342992.3041200638
794,nan,65,6608,33296,343427.9850065708
795,nan,67,6608,33296,343859.96966576576
796,nan,62,6608,33296,344293.2464122772
797,nan,71,6608,33296,344732.60471868515
798,nan,68,6608,33296,345167.86564326286
799,nan,65,6608,33296,345598.25238657
800,nan,72,6608,33296,346028.87286424637
801,nan,67,6608,33296,346458.29724025726
802,nan,70,6608,33296,346895.9461066723
803,nan,71,6608,33296,347325.0462114811
804,nan,72,6608,33296,347764.5170369148
805,nan,61,6608,33296,348195.3920440674
806,nan,71,6608,33296,348623.204539299
807,nan,67,6608,33296,349056.5473628044
808,nan,71,6608,33296,349492.0842626095
809,nan,74,6608,33296,349924.19281315804
810,nan,63,6608,33296,350352.7712125778
811,nan,65,6608,33296,350783.88376522064
812,nan,69,6608,33296,351215.16285967827
813,nan,64,6608,33296,351651.14756321907
814,nan,71,6608,33296,352088.05301880836
815,nan,61,6608,33296,352517.0635166168
816,nan,69,6608,33296,352949.11618733406
817,nan,67,6608,33296,353381.3565618992
818,nan,67,6608,33296,353816.6570549011
819,nan,65,6608,33296,354248.12471556664
820,nan,66,6608,33296,354691.10559272766
821,nan,68,6608,33296,355129.9481232166
822,nan,72,6608,33296,355576.5338664055
823,nan,65,6608,33296,356010.60387682915
824,nan,67,6608,33296,356444.8786931038
825,nan,61,6608,33296,356884.5905277729
826,nan,64,6608,33296,357320.08002591133
827,nan,65,6608,33296,357760.3178191185
828,nan,70,6608,33296,358195.3482186794
829,nan,67,6608,33296,358629.1987197399
830,nan,65,6608,33296,359055.3113927841
831,nan,70,6608,33296,359488.6139025688
832,nan,64,6608,33296,359922.6048529148
833,nan,66,6608,33296,360361.0059726238
834,nan,69,6608,33296,360791.85180568695
835,nan,71,6608,33296,361223.1386783123
836,nan,71,6608,33296,361656.36905670166
837,nan,67,6608,33296,362089.90377378464
838,nan,69,6608,33296,362526.9249520302
839,nan,69,6608,33296,362965.53411865234
840,nan,69,6608,33296,363402.56982803345
841,nan,68,6608,33296,363834.9669635296
842,nan,71,6608,33296,364276.67386102676
843,nan,71,6608,33296,364712.0230638981
844,nan,68,6608,33296,365142.87478756905
845,nan,63,6608,33296,365579.67396712303
846,nan,68,6608,33296,366016.70489025116
847,nan,62,6608,33296,366449.6719698906
848,nan,67,6608,33296,366888.774900198
849,nan,70,6608,33296,367322.06454730034
850,nan,67,6608,33296,367759.3014752865
851,nan,70,6608,33296,368198.2646384239
852,nan,70,6608,33296,368634.6101884842
853,nan,65,6608,33296,369068.7887673378
854,nan,71,6608,33296,369503.8680794239
855,nan,68,6608,33296,369939.4919321537
856,nan,68,6608,33296,370374.7254219055
857,nan,69,6608,33296,370808.8884038925
858,nan,69,6608,33296,371250.32724905014
859,nan,69,6608,33296,371688.1267442703
860,nan,68,6608,33296,372118.8871202469
861,nan,66,6608,33296,372550.50100398064
862,nan,72,6608,33296,372978.43320059776
863,nan,68,6608,33296,373408.15622735023
864,nan,65,6608,33296,373839.87182450294
865,nan,66,6608,33296,374274.4315841198
866,nan,63,6608,33296,374706.72769355774
867,nan,71,6608,33296,375144.4460873604
868,nan,66,6608,33296,375579.68782162666
869,nan,67,6608,33296,376015.7148165703
870,nan,67,6608,33296,376445.72220921516
871,nan,68,6608,33296,376881.97027421
872,nan,65,6608,33296,377315.76533937454
873,nan,62,6608,33296,377749.15522122383
874,nan,67,6608,33296,378181.73267936707
875,nan,65,6608,33296,378619.13530659676
876,nan,71,6608,33296,379056.056252718
877,nan,67,6608,33296,379488.1209397316
878,nan,65,6608,33296,379923.875469923
879,nan,73,6608,33296,380362.67726159096
880,nan,71,6608,33296,380796.4568514824
881,nan,75,6608,33296,381233.64201426506
882,nan,69,6608,33296,381676.76463770866
883,nan,71,6608,33296,382108.1584815979
884,nan,73,6608,33296,382540.1652457714
885,nan,65,6608,33296,382978.6208612919
886,nan,70,6608,33296,383418.33688282967
887,nan,70,6608,33296,383852.5168955326
888,nan,69,6608,33296,384294.5628294945
889,nan,63,6608,33296,384729.4692287445
890,nan,78,6608,33296,385162.716976881
891,nan,66,6608,33296,385606.3516380787
892,nan,75,6608,33296,386038.76966524124
893,nan,69,6608,33296,386474.5927989483
894,nan,69,6608,33296,386911.69902062416
895,nan,70,6608,33296,387345.6818270683
896,nan,71,6608,33296,387777.54970240593
897,nan,69,6608,33296,388209.4816670418
898,nan,68,6608,33296,388650.704390049
899,nan,71,6608,33296,389082.95547771454
900,nan,63,6608,33296,389516.6988148689
901,nan,70,6608,33296,389958.08308053017
902,nan,71,6608,33296,390394.0284974575
903,nan,64,6608,33296,390835.55871605873
904,nan,68,6608,33296,391278.82173490524
905,nan,69,6608,33296,391716.3517472744
906,nan,70,6608,33296,392151.03064990044
907,nan,69,6608,33296,392593.520853281
908,nan,66,6608,33296,393031.1760663986
909,nan,66,6608,33296,393472.0701634884
910,nan,74,6608,33296,393910.62496495247
911,nan,63,6608,33296,394344.23128962517
912,nan,63,6608,33296,394772.2101178169
913,nan,67,6608,33296,395208.8866145611
914,nan,66,6608,33296,395651.31761693954
915,nan,69,6608,33296,396090.2171316147
916,nan,65,6608,33296,396526.85347032547
917,nan,67,6608,33296,396961.0078818798
918,nan,68,6608,33296,397399.06566762924
919,nan,67,6608,33296,397832.03940820694
920,nan,77,6608,33296,398269.2205879688
921,nan,70,6608,33296,398711.70143294334
922,nan,71,6608,33296,399152.29625821114
923,nan,74,6608,33296,399597.26033997536
924,nan,73,6608,33296,400041.9129085541
925,nan,74,6608,33296,400477.8059439659
926,nan,65,6608,33296,400911.01187467575
927,nan,67,6608,33296,401348.04516768456
928,nan,69,6608,33296,401784.0183620453
929,nan,64,6608,33296,402217.7147181034
930,nan,65,6608,33296,402662.2416203022
931,nan,73,6608,33296,403102.80875587463
932,nan,70,6608,33296,403544.78235960007
933,nan,71,6608,33296,403988.44229626656
934,nan,62,6608,33296,404422.8699326515
935,nan,74,6608,33296,404860.8248593807
936,nan,70,6608,33296,405305.75187015533
937,nan,62,6608,33296,405742.35613298416
938,nan,63,6608,33296,406179.17625522614
939,nan,73,6608,33296,406611.4280810356
940,nan,66,6608,33296,407046.47251582146
941,nan,69,6608,33296,407485.2006626129
942,nan,70,6608,33296,407923.63384485245
943,nan,72,6608,33296,408359.3059272766
944,nan,73,6608,33296,408795.23211216927
945,nan,64,6608,33296,409228.12314391136
946,nan,64,6608,33296,409661.67388653755
947,nan,65,6608,33296,410093.96583271027
948,nan,69,6608,33296,410531.04350066185
949,nan,62,6608,33296,410964.8987920284
950,nan,62,6608,33296,411402.5411744118
951,nan,72,6608,33296,411844.801112175
952,nan,64,6608,33296,412280.3056771755
953,nan,64,6608,33296,412717.8110265732
954,nan,70,6608,33296,413157.50534176826
955,nan,72,6608,33296,413595.18496990204
956,nan,72,6608,33296,414025.0986316204
957,nan,69,6608,33296,414458.4447507858
958,nan,65,6608,33296,414896.5240659714
959,nan,74,6608,33296,415335.846668005
960,nan,68,6608,33296,415771.2171225548
961,nan,66,6608,33296,416203.4710123539
962,nan,74,6608,33296,416640.6866583824
963,nan,69,6608,33296,417078.7113029957
964,nan,74,6608,33296,417522.30991983414
965,nan,65,6608,33296,417957.2761750221
966,nan,69,6608,33296,418394.21650886536
967,nan,68,6608,33296,418825.57522273064
968,nan,66,6608,33296,419262.1713895798
969,nan,71,6608,33296,419694.2249763012
970,nan,70,6608,33296,420128.2850995064
971,nan,69,6608,33296,420564.1654331684
972,nan,68,6608,33296,420998.98939728737
973,nan,67,6608,33296,421433.21504092216
974,nan,61,6608,33296,421869.1013813019
975,nan,69,6608,33296,422302.2520523071
976,nan,63,6608,33296,422743.2559118271
977,nan,64,6608,33296,423181.45917510986
978,nan,70,6608,33296,423619.8437488079
979,nan,71,6608,33296,424060.4018154144
980,nan,60,6608,33296,424488.38968396187
981,nan,63,6608,33296,424919.12952566147
982,nan,67,6608,33296,425356.65373182297
983,nan,63,6608,33296,425794.0346150398
984,nan,63,6608,33296,426235.4299829006
985,nan,73,6608,33296,426671.63798832893
986,nan,70,6608,33296,427111.1964840889
987,nan,73,6608,33296,427545.7049405575
988,nan,74,6608,33296,427983.374099493
989,nan,69,6608,33296,428423.646330595
990,nan,61,6608,33296,428854.7863330841
991,nan,66,6608,33296,429295.1616897583
992,nan,66,6608,33296,429725.74955296516
993,nan,67,6608,33296,430165.4893836975
994,nan,64,6608,33296,430595.7837100029
995,nan,63,6608,33296,431034.53398799896
996,nan,73,6608,33296,431466.64343595505
997,nan,69,6608,33296,431889.29566693306
998,nan,65,6608,33296,432307.6903555393
999,nan,69,6608,33296,432724.45653033257
1000,nan,66,6608,33296,433124.49113225937
