mps,mcs,mp_size,subset_size,network_size,dt
1,nan,71,6608,33296,444.37578797340393
2,nan,71,6608,33296,878.9090027809143
3,nan,66,6608,33296,1305.7983424663544
4,nan,70,6608,33296,1740.3545277118683
5,nan,66,6608,33296,2173.1685194969177
6,nan,67,6608,33296,2604.87637591362
7,nan,71,6608,33296,3033.382302761078
8,nan,69,6608,33296,3466.8088319301605
9,nan,68,6608,33296,3907.7726204395294
10,nan,65,6608,33296,4341.853766918182
11,nan,64,6608,33296,4769.18043589592
12,nan,74,6608,33296,5205.431352853775
13,nan,73,6608,33296,5635.06156039238
14,nan,62,6608,33296,6063.27889919281
15,nan,69,6608,33296,6491.717311859131
16,nan,70,6608,33296,6920.663276672363
17,nan,68,6608,33296,7348.8601813316345
18,nan,67,6608,33296,7780.50461268425
19,nan,67,6608,33296,8207.339283704758
20,nan,69,6608,33296,8642.553673267365
21,nan,68,6608,33296,9076.810038805008
22,nan,68,6608,33296,9508.011516332626
23,nan,73,6608,33296,9940.692626476288
24,nan,69,6608,33296,10376.948641061783
25,nan,59,6608,33296,10810.069634437561
26,nan,69,6608,33296,11242.530185222626
27,nan,69,6608,33296,11673.65972995758
28,nan,68,6608,33296,12101.901633024216
29,nan,73,6608,33296,12543.052047014236
30,nan,66,6608,33296,12971.709190368652
31,nan,68,6608,33296,13407.697278022766
32,nan,72,6608,33296,13834.639486551285
33,nan,70,6608,33296,14264.784832715988
34,nan,67,6608,33296,14696.408197879791
35,nan,78,6608,33296,15134.944438695908
36,nan,64,6608,33296,15565.039835691452
37,nan,70,6608,33296,15999.595308303833
38,nan,66,6608,33296,16431.45755290985
39,nan,61,6608,33296,16860.57715344429
40,nan,66,6608,33296,17303.18656682968
41,nan,65,6608,33296,17735.32296872139
42,nan,68,6608,33296,18165.90532374382
43,nan,69,6608,33296,18599.12911772728
44,nan,67,6608,33296,19023.985505580902
45,nan,67,6608,33296,19455.6225233078
46,nan,66,6608,33296,19885.65615272522
47,nan,68,6608,33296,20311.540628433228
48,nan,66,6608,33296,20736.240923643112
49,nan,67,6608,33296,21172.18508720398
50,nan,71,6608,33296,21599.67059135437
51,nan,67,6608,33296,22030.899327516556
52,nan,68,6608,33296,22461.01588320732
53,nan,67,6608,33296,22893.335326194763
54,nan,69,6608,33296,23323.23255634308
55,nan,66,6608,33296,23753.869285821915
56,nan,71,6608,33296,24183.662257909775
57,nan,64,6608,33296,24615.39289999008
58,nan,61,6608,33296,25043.634780168533
59,nan,66,6608,33296,25470.60559630394
60,nan,70,6608,33296,25906.152474164963
61,nan,65,6608,33296,26334.78955769539
62,nan,59,6608,33296,26763.736948013306
63,nan,66,6608,33296,27190.9421710968
64,nan,70,6608,33296,27621.33421254158
65,nan,75,6608,33296,28056.828998327255
66,nan,56,6608,33296,28480.366281032562
67,nan,60,6608,33296,28914.40745830536
68,nan,74,6608,33296,29342.19002866745
69,nan,68,6608,33296,29772.267988204956
70,nan,65,6608,33296,30206.5559425354
71,nan,68,6608,33296,30636.511132717133
72,nan,67,6608,33296,31069.15578508377
73,nan,71,6608,33296,31497.47031569481
74,nan,69,6608,33296,31924.475832223892
75,nan,64,6608,33296,32348.0320584774
76,nan,71,6608,33296,32779.53835749626
77,nan,66,6608,33296,33212.254779577255
78,nan,66,6608,33296,33642.34854054451
79,nan,70,6608,33296,34070.96880078316
80,nan,68,6608,33296,34502.435349226
81,nan,71,6608,33296,34929.977543115616
82,nan,72,6608,33296,35363.480167627335
83,nan,65,6608,33296,35796.11055922508
84,nan,66,6608,33296,36229.08345413208
85,nan,67,6608,33296,36663.52349114418
86,nan,69,6608,33296,37096.17448282242
87,nan,64,6608,33296,37532.56594777107
88,nan,63,6608,33296,37972.655927181244
89,nan,65,6608,33296,38403.95740222931
90,nan,73,6608,33296,38833.92558860779
91,nan,68,6608,33296,39271.01841759682
92,nan,73,6608,33296,39701.5666513443
93,nan,71,6608,33296,40129.47378015518
94,nan,71,6608,33296,40561.62319421768
95,nan,73,6608,33296,40989.19409489632
96,nan,61,6608,33296,41411.48332929611
97,nan,72,6608,33296,41850.15834569931
98,nan,68,6608,33296,42284.750713825226
99,nan,73,6608,33296,42714.33223319054
100,nan,68,6608,33296,43149.460955142975
101,nan,64,6608,33296,43584.0468108654
102,nan,69,6608,33296,44019.33131670952
103,nan,73,6608,33296,44448.49662590027
104,nan,68,6608,33296,44880.467104673386
105,nan,65,6608,33296,45309.934809207916
106,nan,65,6608,33296,45739.02687716484
107,nan,74,6608,33296,46171.84461784363
108,nan,66,6608,33296,46608.9027326107
109,nan,66,6608,33296,47038.791219711304
110,nan,64,6608,33296,47467.72022342682
111,nan,73,6608,33296,47897.944007873535
112,nan,66,6608,33296,48327.014778375626
113,nan,66,6608,33296,48759.83618307114
114,nan,71,6608,33296,49192.562133550644
115,nan,68,6608,33296,49624.94733285904
116,nan,72,6608,33296,50056.078741550446
117,nan,69,6608,33296,50489.5686943531
118,nan,66,6608,33296,50917.411009311676
119,nan,70,6608,33296,51348.02638864517
120,nan,66,6608,33296,51780.657641887665
121,nan,67,6608,33296,52213.567630529404
122,nan,66,6608,33296,52644.962123155594
123,nan,66,6608,33296,53079.7717461586
124,nan,72,6608,33296,53510.419207811356
125,nan,65,6608,33296,53940.59305667877
126,nan,71,6608,33296,54374.207259655
127,nan,64,6608,33296,54803.821452856064
128,nan,73,6608,33296,55239.63454461098
129,nan,63,6608,33296,55676.843400001526
130,nan,69,6608,33296,56116.128490448
131,nan,68,6608,33296,56553.68821787834
132,nan,69,6608,33296,56991.383225917816
133,nan,73,6608,33296,57428.38750910759
134,nan,70,6608,33296,57862.84591245651
135,nan,63,6608,33296,58293.82729411125
136,nan,70,6608,33296,58730.53437542915
137,nan,63,6608,33296,59164.16811418533
138,nan,66,6608,33296,59606.14342856407
139,nan,69,6608,33296,60040.29702091217
140,nan,67,6608,33296,60472.08332037926
141,nan,66,6608,33296,60912.23614907265
142,nan,70,6608,33296,61347.98579597473
143,nan,68,6608,33296,61787.418092250824
144,nan,72,6608,33296,62222.66133093834
145,nan,66,6608,33296,62657.479684114456
146,nan,68,6608,33296,63086.82146906853
147,nan,67,6608,33296,63520.47808551788
148,nan,68,6608,33296,63954.23818039894
149,nan,69,6608,33296,64383.527084350586
150,nan,67,6608,33296,64817.11009979248
151,nan,76,6608,33296,65245.15675616264
152,nan,67,6608,33296,65679.71050333977
153,nan,73,6608,33296,66118.4655778408
154,nan,66,6608,33296,66559.95023536682
155,nan,66,6608,33296,66993.94234919548
156,nan,67,6608,33296,67432.59907984734
157,nan,63,6608,33296,67866.84568810463
158,nan,69,6608,33296,68300.58096027374
159,nan,68,6608,33296,68732.60940980911
160,nan,64,6608,33296,69163.68470215797
161,nan,70,6608,33296,69598.47186684608
162,nan,67,6608,33296,70028.54633688927
163,nan,74,6608,33296,70462.81589055061
164,nan,67,6608,33296,70892.03677940369
165,nan,67,6608,33296,71323.51635193825
166,nan,65,6608,33296,71752.2527141571
167,nan,68,6608,33296,72187.9724202156
168,nan,64,6608,33296,72624.2771718502
169,nan,70,6608,33296,73051.03589344025
170,nan,66,6608,33296,73477.9240796566
171,nan,65,6608,33296,73912.5919201374
172,nan,66,6608,33296,74342.81485033035
173,nan,63,6608,33296,74771.91271352768
174,nan,69,6608,33296,75201.67452955246
175,nan,67,6608,33296,75630.9138314724
176,nan,69,6608,33296,76061.68656659126
177,nan,68,6608,33296,76495.78776168823
178,nan,76,6608,33296,76926.95237088203
179,nan,68,6608,33296,77356.93819665909
180,nan,68,6608,33296,77791.31163692474
181,nan,67,6608,33296,78228.71595096588
182,nan,71,6608,33296,78662.09262394905
183,nan,70,6608,33296,79091.2851498127
184,nan,72,6608,33296,79528.26919174194
185,nan,61,6608,33296,79955.8828907013
186,nan,70,6608,33296,80391.41395711899
187,nan,72,6608,33296,80829.08381128311
188,nan,69,6608,33296,81260.56387090683
189,nan,75,6608,33296,81691.78593659401
190,nan,63,6608,33296,82127.25790309906
191,nan,70,6608,33296,82552.97804141045
192,nan,67,6608,33296,82981.95442795753
193,nan,66,6608,33296,83417.02271533012
194,nan,68,6608,33296,83854.76234817505
195,nan,72,6608,33296,84287.02784490585
196,nan,69,6608,33296,84721.58759045601
197,nan,72,6608,33296,85154.0730047226
198,nan,70,6608,33296,85591.74216723442
199,nan,69,6608,33296,86028.89461398125
200,nan,72,6608,33296,86460.8728146553
201,nan,72,6608,33296,86894.3493654728
202,nan,71,6608,33296,87323.51798295975
203,nan,66,6608,33296,87754.27799010277
204,nan,68,6608,33296,88185.35280442238
205,nan,68,6608,33296,88620.92657589912
206,nan,64,6608,33296,89059.26139235497
207,nan,68,6608,33296,89490.05779266357
208,nan,70,6608,33296,89927.37449836731
209,nan,69,6608,33296,90360.91356492043
210,nan,67,6608,33296,90792.45090675354
211,nan,72,6608,33296,91227.70116662979
212,nan,68,6608,33296,91655.87836956978
213,nan,71,6608,33296,92090.72093153
214,nan,73,6608,33296,92531.09441947937
215,nan,67,6608,33296,92969.24811959267
216,nan,64,6608,33296,93396.15953016281
217,nan,76,6608,33296,93830.56279802322
218,nan,64,6608,33296,94257.78863739967
219,nan,71,6608,33296,94691.02611517906
220,nan,73,6608,33296,95120.78860759735
221,nan,63,6608,33296,95556.9069712162
222,nan,70,6608,33296,95983.44520807266
223,nan,65,6608,33296,96410.66785097122
224,nan,66,6608,33296,96836.39281821251
225,nan,70,6608,33296,97269.49282693863
226,nan,66,6608,33296,97698.2340862751
227,nan,71,6608,33296,98139.95772790909
228,nan,72,6608,33296,98574.08892059326
229,nan,64,6608,33296,99007.86367821693
230,nan,67,6608,33296,99439.22017526627
231,nan,68,6608,33296,99869.88803792
232,nan,70,6608,33296,100298.47172093391
233,nan,65,6608,33296,100731.48746919632
234,nan,64,6608,33296,101163.25160861015
235,nan,78,6608,33296,101595.44812130928
236,nan,78,6608,33296,102031.98073363304
237,nan,74,6608,33296,102463.58733916283
238,nan,67,6608,33296,102892.63831686974
239,nan,72,6608,33296,103331.74399447441
240,nan,67,6608,33296,103765.45194745064
241,nan,72,6608,33296,104203.727404356
242,nan,69,6608,33296,104638.31754398346
243,nan,64,6608,33296,105073.12895131111
244,nan,71,6608,33296,105504.18079972267
245,nan,68,6608,33296,105940.03929948807
246,nan,74,6608,33296,106370.8579916954
247,nan,63,6608,33296,106803.9885020256
248,nan,68,6608,33296,107238.14805459976
249,nan,63,6608,33296,107665.12262320518
250,nan,67,6608,33296,108099.94972229004
251,nan,69,6608,33296,108528.08381938934
252,nan,71,6608,33296,108959.15614914894
253,nan,59,6608,33296,109395.55911278725
254,nan,72,6608,33296,109828.26615524292
255,nan,66,6608,33296,110267.04597830772
256,nan,66,6608,33296,110697.03883457184
257,nan,68,6608,33296,111133.79320216179
258,nan,65,6608,33296,111574.72973561287
259,nan,69,6608,33296,112002.4428100586
260,nan,66,6608,33296,112432.47748994827
261,nan,70,6608,33296,112863.9558904171
262,nan,60,6608,33296,113294.51882266998
263,nan,75,6608,33296,113733.1465651989
264,nan,69,6608,33296,114172.09817838669
265,nan,63,6608,33296,114598.61394810677
266,nan,68,6608,33296,115036.48064684868
267,nan,63,6608,33296,115471.23958015442
268,nan,71,6608,33296,115905.71617722511
269,nan,70,6608,33296,116334.50875544548
270,nan,69,6608,33296,116763.64161157608
271,nan,69,6608,33296,117199.26829051971
272,nan,66,6608,33296,117629.68877148628
273,nan,64,6608,33296,118064.02184700966
274,nan,67,6608,33296,118497.61529183388
275,nan,74,6608,33296,118932.92538142204
276,nan,69,6608,33296,119364.35470604897
277,nan,68,6608,33296,119797.19977879524
278,nan,65,6608,33296,120229.5493068695
279,nan,70,6608,33296,120657.43490076065
280,nan,71,6608,33296,121090.83959650993
281,nan,63,6608,33296,121516.92931818962
282,nan,67,6608,33296,121950.78296327591
283,nan,69,6608,33296,122388.57973456383
284,nan,72,6608,33296,122824.63936376572
285,nan,67,6608,33296,123257.20538258553
286,nan,63,6608,33296,123691.0276734829
287,nan,81,6608,33296,124126.97527098656
288,nan,74,6608,33296,124567.33776211739
289,nan,71,6608,33296,125000.07347583771
290,nan,67,6608,33296,125436.74533367157
291,nan,72,6608,33296,125873.9233493805
292,nan,69,6608,33296,126308.40083742142
293,nan,66,6608,33296,126738.81157279015
294,nan,60,6608,33296,127168.60924983025
295,nan,71,6608,33296,127598.56428003311
296,nan,70,6608,33296,128029.1583609581
297,nan,64,6608,33296,128456.9079272747
298,nan,62,6608,33296,128890.31416392326
299,nan,69,6608,33296,129322.32134366035
300,nan,66,6608,33296,129757.35398745537
301,nan,76,6608,33296,130188.25456500053
302,nan,70,6608,33296,130618.18595790863
303,nan,70,6608,33296,131048.09123897552
304,nan,68,6608,33296,131479.2444665432
305,nan,64,6608,33296,131912.5511200428
306,nan,72,6608,33296,132348.3104007244
307,nan,66,6608,33296,132777.37658834457
308,nan,68,6608,33296,133210.29520130157
309,nan,66,6608,33296,133645.15554451942
310,nan,71,6608,33296,134075.9627058506
311,nan,60,6608,33296,134511.27291345596
312,nan,66,6608,33296,134943.9633386135
313,nan,69,6608,33296,135369.38200116158
314,nan,67,6608,33296,135801.42366743088
315,nan,71,6608,33296,136239.83630871773
316,nan,69,6608,33296,136680.31584644318
317,nan,64,6608,33296,137111.62470912933
318,nan,66,6608,33296,137551.94353961945
319,nan,72,6608,33296,137984.2238650322
320,nan,66,6608,33296,138417.90002655983
321,nan,73,6608,33296,138857.03099751472
322,nan,71,6608,33296,139294.59679031372
323,nan,67,6608,33296,139736.4376063347
324,nan,65,6608,33296,140173.7468879223
325,nan,67,6608,33296,140609.92933249474
326,nan,66,6608,33296,141039.8334505558
327,nan,69,6608,33296,141467.9648578167
328,nan,69,6608,33296,141901.53744506836
329,nan,64,6608,33296,142332.06986689568
330,nan,68,6608,33296,142766.31003308296
331,nan,66,6608,33296,143194.33448147774
332,nan,72,6608,33296,143635.1579606533
333,nan,67,6608,33296,144073.13952851295
334,nan,61,6608,33296,144504.98894190788
335,nan,68,6608,33296,144937.26422429085
336,nan,68,6608,33296,145366.12203979492
337,nan,72,6608,33296,145802.57857632637
338,nan,71,6608,33296,146236.8912103176
339,nan,64,6608,33296,146672.9276535511
340,nan,69,6608,33296,147103.58892178535
341,nan,65,6608,33296,147532.60956072807
342,nan,72,6608,33296,147969.19156765938
343,nan,64,6608,33296,148403.58263397217
344,nan,71,6608,33296,148846.55281066895
345,nan,70,6608,33296,149280.6082239151
346,nan,68,6608,33296,149718.2330851555
347,nan,70,6608,33296,150154.645935297
348,nan,65,6608,33296,150588.85586714745
349,nan,68,6608,33296,151027.85933089256
350,nan,69,6608,33296,151468.26817679405
351,nan,67,6608,33296,151902.01843690872
352,nan,65,6608,33296,152335.71844172478
353,nan,71,6608,33296,152768.95496177673
354,nan,68,6608,33296,153211.38759589195
355,nan,67,6608,33296,153642.46396017075
356,nan,65,6608,33296,154079.23978185654
357,nan,62,6608,33296,154508.8378162384
358,nan,67,6608,33296,154945.43178772926
359,nan,71,6608,33296,155374.4833624363
360,nan,62,6608,33296,155809.33570575714
361,nan,70,6608,33296,156238.01761984825
362,nan,69,6608,33296,156670.36244487762
363,nan,73,6608,33296,157110.86266374588
364,nan,71,6608,33296,157539.70811915398
365,nan,62,6608,33296,157967.25392055511
366,nan,68,6608,33296,158394.84285902977
367,nan,71,6608,33296,158831.36575126648
368,nan,65,6608,33296,159263.0774462223
369,nan,72,6608,33296,159699.86375308037
370,nan,70,6608,33296,160131.05273652077
371,nan,65,6608,33296,160561.35245537758
372,nan,71,6608,33296,160993.0136229992
373,nan,72,6608,33296,161429.30054473877
374,nan,75,6608,33296,161867.11405968666
375,nan,68,6608,33296,162299.6305847168
376,nan,74,6608,33296,162731.80589795113
377,nan,68,6608,33296,163169.25683999062
378,nan,73,6608,33296,163607.75714564323
379,nan,61,6608,33296,164036.08186483383
380,nan,74,6608,33296,164471.2606561184
381,nan,65,6608,33296,164910.69529151917
382,nan,70,6608,33296,165343.81855893135
383,nan,66,6608,33296,165771.5556395054
384,nan,68,6608,33296,166203.521971941
385,nan,62,6608,33296,166634.76137280464
386,nan,67,6608,33296,167068.9281733036
387,nan,69,6608,33296,167502.5566022396
388,nan,72,6608,33296,167938.39933657646
389,nan,73,6608,33296,168374.54849219322
390,nan,74,6608,33296,168810.94421315193
391,nan,66,6608,33296,169245.12881064415
392,nan,63,6608,33296,169679.09349250793
393,nan,69,6608,33296,170115.3210644722
394,nan,73,6608,33296,170552.67358374596
395,nan,65,6608,33296,170994.10466456413
396,nan,65,6608,33296,171431.43892621994
397,nan,68,6608,33296,171866.61688256264
398,nan,76,6608,33296,172304.0027589798
399,nan,64,6608,33296,172739.53823184967
400,nan,74,6608,33296,173177.40141797066
401,nan,63,6608,33296,173617.7200756073
402,nan,70,6608,33296,174055.45700192451
403,nan,71,6608,33296,174495.64930319786
404,nan,67,6608,33296,174933.89251303673
405,nan,67,6608,33296,175372.70334100723
406,nan,70,6608,33296,175813.39732408524
407,nan,70,6608,33296,176248.3987300396
408,nan,66,6608,33296,176683.600877285
409,nan,66,6608,33296,177123.41066765785
410,nan,71,6608,33296,177568.61559915543
411,nan,63,6608,33296,178003.7514886856
412,nan,61,6608,33296,178444.7124042511
413,nan,70,6608,33296,178882.25565314293
414,nan,72,6608,33296,179320.87457466125
415,nan,70,6608,33296,179751.46725606918
416,nan,74,6608,33296,180185.3434729576
417,nan,65,6608,33296,180622.64906668663
418,nan,74,6608,33296,181053.3263065815
419,nan,65,6608,33296,181484.5381424427
420,nan,67,6608,33296,181915.9173834324
421,nan,70,6608,33296,182349.0823419094
422,nan,64,6608,33296,182777.85831069946
423,nan,70,6608,33296,183207.4652364254
424,nan,67,6608,33296,183635.314712286
425,nan,68,6608,33296,184062.85287570953
426,nan,65,6608,33296,184490.84257650375
427,nan,65,6608,33296,184918.19677639008
428,nan,72,6608,33296,185347.70116519928
429,nan,66,6608,33296,185773.75831627846
430,nan,67,6608,33296,186203.5206911564
431,nan,64,6608,33296,186628.35857701302
432,nan,71,6608,33296,187055.30161428452
433,nan,72,6608,33296,187490.4992878437
434,nan,64,6608,33296,187921.32730793953
435,nan,62,6608,33296,188343.7289364338
436,nan,72,6608,33296,188775.30858373642
437,nan,74,6608,33296,189203.47029471397
438,nan,73,6608,33296,189629.74015665054
439,nan,67,6608,33296,190055.0355846882
440,nan,66,6608,33296,190487.32591032982
441,nan,66,6608,33296,190919.0597360134
442,nan,74,6608,33296,191346.15764832497
443,nan,67,6608,33296,191771.77975606918
444,nan,67,6608,33296,192195.8512685299
445,nan,65,6608,33296,192625.54035019875
446,nan,72,6608,33296,193056.6993587017
447,nan,74,6608,33296,193499.00841927528
448,nan,69,6608,33296,193930.7721068859
449,nan,65,6608,33296,194354.71338510513
450,nan,68,6608,33296,194783.61314558983
451,nan,66,6608,33296,195210.86872029305
452,nan,79,6608,33296,195639.07293224335
453,nan,69,6608,33296,196067.7437942028
454,nan,72,6608,33296,196498.61398553848
455,nan,71,6608,33296,196927.19984698296
456,nan,70,6608,33296,197361.14868879318
457,nan,75,6608,33296,197790.53884339333
458,nan,65,6608,33296,198219.2044622898
459,nan,69,6608,33296,198648.01452755928
460,nan,71,6608,33296,199077.661744833
461,nan,74,6608,33296,199516.76379418373
462,nan,67,6608,33296,199948.14091420174
463,nan,65,6608,33296,200371.68091511726
464,nan,64,6608,33296,200793.49741840363
465,nan,69,6608,33296,201223.9374206066
466,nan,72,6608,33296,201655.08274674416
467,nan,73,6608,33296,202086.25812768936
468,nan,68,6608,33296,202513.8994538784
469,nan,69,6608,33296,202943.77154111862
470,nan,61,6608,33296,203370.77315855026
471,nan,77,6608,33296,203800.85080718994
472,nan,66,6608,33296,204224.84862446785
473,nan,67,6608,33296,204652.65178251266
474,nan,65,6608,33296,205084.18769478798
475,nan,68,6608,33296,205517.98742055893
476,nan,68,6608,33296,205944.04028081894
477,nan,68,6608,33296,206370.9457321167
478,nan,64,6608,33296,206799.31115579605
479,nan,64,6608,33296,207235.3006811142
480,nan,63,6608,33296,207664.8710129261
481,nan,69,6608,33296,208091.0101299286
482,nan,68,6608,33296,208521.63183689117
483,nan,64,6608,33296,208948.5097577572
484,nan,69,6608,33296,209380.02765274048
485,nan,70,6608,33296,209811.48296880722
486,nan,70,6608,33296,210239.93493938446
487,nan,64,6608,33296,210668.40250062943
488,nan,64,6608,33296,211102.95375537872
489,nan,70,6608,33296,211535.53641819954
490,nan,70,6608,33296,211969.7088816166
491,nan,64,6608,33296,212399.76759409904
492,nan,70,6608,33296,212834.00293254852
493,nan,71,6608,33296,213259.98479127884
494,nan,64,6608,33296,213684.778301239
495,nan,64,6608,33296,214113.27130532265
496,nan,69,6608,33296,214540.11731386185
497,nan,63,6608,33296,214969.29974269867
498,nan,73,6608,33296,215393.14062023163
499,nan,65,6608,33296,215828.8102827072
500,nan,69,6608,33296,216267.4220290184
501,nan,69,6608,33296,216698.94484615326
502,nan,74,6608,33296,217127.79213881493
503,nan,66,6608,33296,217557.73435521126
504,nan,66,6608,33296,217990.5280995369
505,nan,72,6608,33296,218424.28720760345
506,nan,66,6608,33296,218856.11559987068
507,nan,68,6608,33296,219290.75400853157
508,nan,71,6608,33296,219725.1715285778
509,nan,66,6608,33296,220167.53448343277
510,nan,70,6608,33296,220594.43987250328
511,nan,74,6608,33296,221027.3485569954
512,nan,69,6608,33296,221451.6047141552
513,nan,66,6608,33296,221877.0139222145
514,nan,66,6608,33296,222306.4304368496
515,nan,72,6608,33296,222735.7057301998
516,nan,67,6608,33296,223163.5146033764
517,nan,65,6608,33296,223594.43128561974
518,nan,74,6608,33296,224029.84287571907
519,nan,67,6608,33296,224457.03319334984
520,nan,67,6608,33296,224884.63253188133
521,nan,71,6608,33296,225311.92805957794
522,nan,67,6608,33296,225733.53243470192
523,nan,71,6608,33296,226156.16292738914
524,nan,64,6608,33296,226583.04751229286
525,nan,70,6608,33296,227012.92366099358
526,nan,64,6608,33296,227444.50993657112
527,nan,70,6608,33296,227868.57415366173
528,nan,62,6608,33296,228303.93771719933
529,nan,61,6608,33296,228739.39671492577
530,nan,68,6608,33296,229164.9395685196
531,nan,66,6608,33296,229591.69786190987
532,nan,69,6608,33296,230021.7315814495
533,nan,68,6608,33296,230451.50050282478
534,nan,71,6608,33296,230878.87645983696
535,nan,68,6608,33296,231310.5684235096
536,nan,66,6608,33296,231742.5622484684
537,nan,67,6608,33296,232168.36794281006
538,nan,71,6608,33296,232596.54277706146
539,nan,67,6608,33296,233028.1781451702
540,nan,70,6608,33296,233451.60859131813
541,nan,68,6608,33296,233878.75436139107
542,nan,67,6608,33296,234315.8931002617
543,nan,74,6608,33296,234754.40479373932
544,nan,63,6608,33296,235182.13536715508
545,nan,70,6608,33296,235609.03691720963
546,nan,65,6608,33296,236041.05574798584
547,nan,67,6608,33296,236472.2531900406
548,nan,77,6608,33296,236909.9069468975
549,nan,71,6608,33296,237334.03985595703
550,nan,71,6608,33296,237767.4608745575
551,nan,69,6608,33296,238195.2847492695
552,nan,64,6608,33296,238620.44813728333
553,nan,67,6608,33296,239049.64618730545
554,nan,66,6608,33296,239475.57828211784
555,nan,69,6608,33296,239907.96410393715
556,nan,64,6608,33296,240337.63598322868
557,nan,70,6608,33296,240765.25964212418
558,nan,66,6608,33296,241193.0757188797
559,nan,65,6608,33296,241633.05193901062
560,nan,63,6608,33296,242061.38905858994
561,nan,64,6608,33296,242486.51204824448
562,nan,68,6608,33296,242919.6560587883
563,nan,69,6608,33296,243354.19966769218
564,nan,73,6608,33296,243786.3880226612
565,nan,70,6608,33296,244218.40536475182
566,nan,66,6608,33296,244648.4791200161
567,nan,66,6608,33296,245077.52123522758
568,nan,62,6608,33296,245515.10097265244
569,nan,70,6608,33296,245948.00174999237
570,nan,63,6608,33296,246377.11154317856
571,nan,66,6608,33296,246809.29837584496
572,nan,72,6608,33296,247244.33958172798
573,nan,67,6608,33296,247681.1107301712
574,nan,73,6608,33296,248117.506336689
575,nan,75,6608,33296,248554.72683024406
576,nan,63,6608,33296,248987.79041719437
577,nan,65,6608,33296,249418.1035118103
578,nan,74,6608,33296,249855.6602458954
579,nan,69,6608,33296,250289.545689106
580,nan,70,6608,33296,250724.6912677288
581,nan,76,6608,33296,251166.60861182213
582,nan,67,6608,33296,251602.1552979946
583,nan,70,6608,33296,252033.82297086716
584,nan,69,6608,33296,252464.0162975788
585,nan,72,6608,33296,252896.2646522522
586,nan,64,6608,33296,253325.75658488274
587,nan,69,6608,33296,253756.34848093987
588,nan,66,6608,33296,254185.12531971931
589,nan,68,6608,33296,254618.3481414318
590,nan,64,6608,33296,255053.58197712898
591,nan,71,6608,33296,255486.32253789902
592,nan,62,6608,33296,255913.96983623505
593,nan,69,6608,33296,256343.46467471123
594,nan,65,6608,33296,256777.36161851883
595,nan,66,6608,33296,257205.79653835297
596,nan,65,6608,33296,257640.8465268612
597,nan,66,6608,33296,258075.62154364586
598,nan,67,6608,33296,258507.68259429932
599,nan,67,6608,33296,258940.87256217003
600,nan,68,6608,33296,259375.93322777748
601,nan,69,6608,33296,259811.10954642296
602,nan,70,6608,33296,260239.28329658508
603,nan,73,6608,33296,260672.63219833374
604,nan,68,6608,33296,261109.45766329765
605,nan,65,6608,33296,261542.89572429657
606,nan,68,6608,33296,261978.1044471264
607,nan,67,6608,33296,262418.54898643494
608,nan,75,6608,33296,262854.2750618458
609,nan,72,6608,33296,263291.93662428856
610,nan,65,6608,33296,263727.077845335
611,nan,66,6608,33296,264158.4102842808
612,nan,64,6608,33296,264591.9510245323
613,nan,67,6608,33296,265030.4276371002
614,nan,65,6608,33296,265460.3833785057
615,nan,71,6608,33296,265891.1556186676
616,nan,69,6608,33296,266325.09515953064
617,nan,67,6608,33296,266757.22161221504
618,nan,67,6608,33296,267198.9163248539
619,nan,67,6608,33296,267626.18722987175
620,nan,68,6608,33296,268064.611594677
621,nan,64,6608,33296,268490.5071146488
622,nan,73,6608,33296,268929.0287926197
623,nan,65,6608,33296,269357.0170648098
624,nan,65,6608,33296,269792.1000802517
625,nan,72,6608,33296,270232.65976166725
626,nan,67,6608,33296,270661.69103479385
627,nan,72,6608,33296,271108.2647821903
628,nan,70,6608,33296,271540.46798563004
629,nan,69,6608,33296,271980.19774770737
630,nan,75,6608,33296,272416.21799325943
631,nan,62,6608,33296,272847.36067199707
632,nan,67,6608,33296,273278.3179471493
633,nan,71,6608,33296,273713.31499147415
634,nan,69,6608,33296,274151.3197937012
635,nan,66,6608,33296,274581.8318529129
636,nan,65,6608,33296,275012.36958408356
637,nan,62,6608,33296,275441.23474144936
638,nan,67,6608,33296,275870.16760730743
639,nan,70,6608,33296,276300.38118720055
640,nan,69,6608,33296,276730.2329149246
641,nan,68,6608,33296,277159.6965932846
642,nan,71,6608,33296,277595.6184988022
643,nan,68,6608,33296,278033.2637979984
644,nan,71,6608,33296,278471.36107730865
645,nan,67,6608,33296,278901.68451452255
646,nan,70,6608,33296,279333.1151688099
647,nan,69,6608,33296,279768.1577730179
648,nan,68,6608,33296,280201.8388431072
649,nan,64,6608,33296,280637.6609683037
650,nan,73,6608,33296,281073.57523965836
651,nan,70,6608,33296,281509.7459025383
652,nan,70,6608,33296,281944.76175284386
653,nan,68,6608,33296,282370.83646535873
654,nan,68,6608,33296,282806.6437449455
655,nan,68,6608,33296,283246.33459854126
656,nan,65,6608,33296,283671.8098232746
657,nan,63,6608,33296,284100.0832467079
658,nan,68,6608,33296,284530.8769521713
659,nan,74,6608,33296,284974.58661675453
660,nan,69,6608,33296,285406.15370869637
661,nan,69,6608,33296,285842.63577079773
662,nan,62,6608,33296,286270.90251517296
663,nan,67,6608,33296,286700.37543559074
664,nan,70,6608,33296,287132.9705719948
665,nan,71,6608,33296,287561.0374224186
666,nan,68,6608,33296,287998.76804471016
667,nan,65,6608,33296,288427.21672296524
668,nan,69,6608,33296,288862.2359740734
669,nan,68,6608,33296,289292.42338585854
670,nan,62,6608,33296,289724.291891098
671,nan,62,6608,33296,290155.94472050667
672,nan,68,6608,33296,290588.1510014534
673,nan,71,6608,33296,291028.9742798805
674,nan,70,6608,33296,291465.80335235596
675,nan,71,6608,33296,291905.57191467285
676,nan,66,6608,33296,292342.9383482933
677,nan,68,6608,33296,292774.39355635643
678,nan,63,6608,33296,293208.56548190117
679,nan,66,6608,33296,293638.9866116047
680,nan,68,6608,33296,294072.658346653
681,nan,65,6608,33296,294509.0063533783
682,nan,70,6608,33296,294935.8471059799
683,nan,66,6608,33296,295366.43904685974
684,nan,73,6608,33296,295798.1941628456
685,nan,70,6608,33296,296232.8033936024
686,nan,68,6608,33296,296670.6619992256
687,nan,69,6608,33296,297101.68474268913
688,nan,64,6608,33296,297540.10866713524
689,nan,75,6608,33296,297976.05192160606
690,nan,68,6608,33296,298405.073969841
691,nan,65,6608,33296,298835.4798901081
692,nan,72,6608,33296,299265.3701031208
693,nan,65,6608,33296,299697.96558356285
694,nan,67,6608,33296,300129.43901896477
695,nan,65,6608,33296,300558.12058520317
696,nan,64,6608,33296,300986.14386987686
697,nan,72,6608,33296,301418.33384394646
698,nan,61,6608,33296,301854.41088438034
699,nan,67,6608,33296,302285.9081366062
700,nan,69,6608,33296,302722.375667572
701,nan,72,6608,33296,303153.4617533684
702,nan,68,6608,33296,303586.18850135803
703,nan,71,6608,33296,304016.36982154846
704,nan,69,6608,33296,304457.7716920376
705,nan,81,6608,33296,304895.79789948463
706,nan,64,6608,33296,305324.83772444725
707,nan,66,6608,33296,305755.5286810398
708,nan,71,6608,33296,306195.99398493767
709,nan,66,6608,33296,306635.07785487175
710,nan,67,6608,33296,307064.0063636303
711,nan,73,6608,33296,307502.6021516323
712,nan,70,6608,33296,307933.1724309921
713,nan,72,6608,33296,308361.6946082115
714,nan,65,6608,33296,308789.25806570053
715,nan,68,6608,33296,309217.1116113663
716,nan,74,6608,33296,309640.96869134903
717,nan,71,6608,33296,310071.7994585037
718,nan,69,6608,33296,310505.812582016
719,nan,60,6608,33296,310934.5095860958
720,nan,65,6608,33296,311363.4794561863
721,nan,63,6608,33296,311793.81167411804
722,nan,68,6608,33296,312233.3206436634
723,nan,73,6608,33296,312669.22236418724
724,nan,64,6608,33296,313103.06066823006
725,nan,70,6608,33296,313530.3343064785
726,nan,70,6608,33296,313968.2049074173
727,nan,67,6608,33296,314401.00662612915
728,nan,71,6608,33296,314841.4038834572
729,nan,69,6608,33296,315287.01551532745
730,nan,70,6608,33296,315723.90639448166
731,nan,72,6608,33296,316161.59335398674
732,nan,70,6608,33296,316595.6227350235
733,nan,67,6608,33296,317023.7167170048
734,nan,64,6608,33296,317457.26758408546
735,nan,68,6608,33296,317892.5812294483
736,nan,65,6608,33296,318327.9388871193
737,nan,64,6608,33296,318757.26019120216
738,nan,71,6608,33296,319187.8626663685
739,nan,65,6608,33296,319619.4343521595
740,nan,70,6608,33296,320062.7519402504
741,nan,72,6608,33296,320498.38069844246
742,nan,65,6608,33296,320933.7317163944
743,nan,67,6608,33296,321368.93537950516
744,nan,71,6608,33296,321803.42849969864
745,nan,69,6608,33296,322243.1785502434
746,nan,71,6608,33296,322674.0620844364
747,nan,70,6608,33296,323106.9668190479
748,nan,70,6608,33296,323547.88879823685
749,nan,68,6608,33296,323981.11871027946
750,nan,74,6608,33296,324417.1030218601
751,nan,67,6608,33296,324847.5134885311
752,nan,68,6608,33296,325290.27094221115
753,nan,74,6608,33296,325726.77670168877
754,nan,67,6608,33296,326162.545661211
755,nan,68,6608,33296,326594.9527080059
756,nan,73,6608,33296,327041.9641201496
757,nan,75,6608,33296,327483.4739251137
758,nan,61,6608,33296,327915.6094622612
759,nan,60,6608,33296,328349.06175613403
760,nan,74,6608,33296,328778.95515179634
761,nan,75,6608,33296,329214.2139015198
762,nan,70,6608,33296,329646.5761079788
763,nan,64,6608,33296,330074.063811779
764,nan,62,6608,33296,330506.7595155239
765,nan,67,6608,33296,330937.25922346115
766,nan,72,6608,33296,331368.80172872543
767,nan,71,6608,33296,331805.19382596016
768,nan,65,6608,33296,332242.1928424835
769,nan,66,6608,33296,332676.6032693386
770,nan,61,6608,33296,333108.5968923569
771,nan,63,6608,33296,333544.38517189026
772,nan,65,6608,33296,333976.3914194107
773,nan,70,6608,33296,334408.97894978523
774,nan,72,6608,33296,334847.97004055977
775,nan,68,6608,33296,335275.52131175995
776,nan,66,6608,33296,335707.4302725792
777,nan,74,6608,33296,336137.15808296204
778,nan,66,6608,33296,336573.56513834
779,nan,74,6608,33296,337006.4813091755
780,nan,69,6608,33296,337442.49455165863
781,nan,73,6608,33296,337877.9224767685
782,nan,71,6608,33296,338313.8407654762
783,nan,66,6608,33296,338745.061457634
784,nan,70,6608,33296,339179.21749067307
785,nan,65,6608,33296,339611.8625757694
786,nan,68,6608,33296,340046.58444333076
787,nan,67,6608,33296,340484.7795701027
788,nan,66,6608,33296,340917.38797426224
789,nan,71,6608,33296,341353.8512458801
790,nan,67,6608,33296,341784.08219766617
791,nan,69,6608,33296,342215.14139556885
792,nan,70,6608,33296,342648.8914151192
793,nan,67,6608,33296,343076.3096203804
794,nan,67,6608,33296,343508.19294023514
795,nan,65,6608,33296,343936.80694293976
796,nan,71,6608,33296,344365.5430290699
797,nan,65,6608,33296,344794.8653047085
798,nan,72,6608,33296,345229.40050315857
799,nan,67,6608,33296,345659.138723135
800,nan,66,6608,33296,346084.62551021576
801,nan,67,6608,33296,346515.47507309914
802,nan,65,6608,33296,346944.29500484467
803,nan,64,6608,33296,347370.58480358124
804,nan,70,6608,33296,347800.49651002884
805,nan,64,6608,33296,348231.35490489006
806,nan,77,6608,33296,348668.4594848156
807,nan,67,6608,33296,349095.65835261345
808,nan,67,6608,33296,349531.8126115799
809,nan,63,6608,33296,349959.42277669907
810,nan,60,6608,33296,350385.1726214886
811,nan,68,6608,33296,350818.68859243393
812,nan,69,6608,33296,351246.9548676014
813,nan,62,6608,33296,351670.59131765366
814,nan,74,6608,33296,352099.65173506737
815,nan,71,6608,33296,352534.9331679344
816,nan,70,6608,33296,352967.53869843483
817,nan,66,6608,33296,353398.6701076031
818,nan,73,6608,33296,353824.22797369957
819,nan,70,6608,33296,354255.3324701786
820,nan,67,6608,33296,354692.30700802803
821,nan,66,6608,33296,355129.30555152893
822,nan,70,6608,33296,355565.2880320549
823,nan,69,6608,33296,356001.9371023178
824,nan,70,6608,33296,356433.78630161285
825,nan,67,6608,33296,356863.03212189674
826,nan,65,6608,33296,357293.3858036995
827,nan,65,6608,33296,357726.6070699692
828,nan,73,6608,33296,358159.8638238907
829,nan,66,6608,33296,358597.0547568798
830,nan,67,6608,33296,359028.49134778976
831,nan,68,6608,33296,359462.0588657856
832,nan,66,6608,33296,359903.04653668404
833,nan,72,6608,33296,360334.64444708824
834,nan,63,6608,33296,360765.40239715576
835,nan,70,6608,33296,361196.00505900383
836,nan,75,6608,33296,361633.01831412315
837,nan,63,6608,33296,362075.42665171623
838,nan,70,6608,33296,362512.7208943367
839,nan,64,6608,33296,362941.1478257179
840,nan,70,6608,33296,363374.2725086212
841,nan,65,6608,33296,363802.4286029339
842,nan,58,6608,33296,364232.6552596092
843,nan,71,6608,33296,364666.8762948513
844,nan,65,6608,33296,365098.08749198914
845,nan,68,6608,33296,365530.1324419975
846,nan,63,6608,33296,365964.12390995026
847,nan,67,6608,33296,366398.70708990097
848,nan,72,6608,33296,366841.19628739357
849,nan,65,6608,33296,367273.1472582817
850,nan,69,6608,33296,367700.5490438938
851,nan,69,6608,33296,368138.04429626465
852,nan,72,6608,33296,368574.8789920807
853,nan,66,6608,33296,369005.9641778469
854,nan,68,6608,33296,369432.77255773544
855,nan,67,6608,33296,369859.6799273491
856,nan,67,6608,33296,370288.93871068954
857,nan,65,6608,33296,370719.4712457657
858,nan,66,6608,33296,371157.72759628296
859,nan,65,6608,33296,371591.92529559135
860,nan,67,6608,33296,372026.4287378788
861,nan,65,6608,33296,372458.69899725914
862,nan,62,6608,33296,372889.0975549221
863,nan,68,6608,33296,373317.1203842163
864,nan,70,6608,33296,373748.48259687424
865,nan,66,6608,33296,374178.5882489681
866,nan,64,6608,33296,374614.51445150375
867,nan,64,6608,33296,375045.84044265747
868,nan,68,6608,33296,375486.8206524849
869,nan,70,6608,33296,375918.0019145012
870,nan,66,6608,33296,376347.2839653492
871,nan,68,6608,33296,376783.80260419846
872,nan,67,6608,33296,377214.8126280308
873,nan,61,6608,33296,377652.3763682842
874,nan,66,6608,33296,378084.4510400295
875,nan,76,6608,33296,378519.23867058754
876,nan,68,6608,33296,378953.03033542633
877,nan,69,6608,33296,379387.20394682884
878,nan,61,6608,33296,379818.5362312794
879,nan,66,6608,33296,380249.8373541832
880,nan,63,6608,33296,380679.79540872574
881,nan,69,6608,33296,381117.38563656807
882,nan,64,6608,33296,381552.88239979744
883,nan,63,6608,33296,381990.9327802658
884,nan,61,6608,33296,382421.0391213894
885,nan,69,6608,33296,382863.6174929142
886,nan,71,6608,33296,383291.62346315384
887,nan,67,6608,33296,383724.52623438835
888,nan,67,6608,33296,384154.00102233887
889,nan,73,6608,33296,384580.8062465191
890,nan,69,6608,33296,385014.0464875698
891,nan,63,6608,33296,385454.35934734344
892,nan,73,6608,33296,385886.6173570156
893,nan,67,6608,33296,386317.453574419
894,nan,64,6608,33296,386755.0766825676
895,nan,68,6608,33296,387184.20805716515
896,nan,72,6608,33296,387619.67499780655
897,nan,65,6608,33296,388051.85975956917
898,nan,67,6608,33296,388487.8793723583
899,nan,67,6608,33296,388926.26451063156
900,nan,67,6608,33296,389356.5127155781
901,nan,67,6608,33296,389795.9884786606
902,nan,67,6608,33296,390228.4050064087
903,nan,70,6608,33296,390656.0493879318
904,nan,71,6608,33296,391103.7309472561
905,nan,64,6608,33296,391542.5105075836
906,nan,67,6608,33296,391981.378544569
907,nan,65,6608,33296,392418.0356891155
908,nan,68,6608,33296,392855.465364933
909,nan,67,6608,33296,393294.2609863281
910,nan,67,6608,33296,393729.00808286667
911,nan,67,6608,33296,394157.7509639263
912,nan,69,6608,33296,394596.35542058945
913,nan,67,6608,33296,395026.8414185047
914,nan,75,6608,33296,395469.16931939125
915,nan,65,6608,33296,395904.9757730961
916,nan,63,6608,33296,396345.5997068882
917,nan,69,6608,33296,396788.59865927696
918,nan,70,6608,33296,397229.8194413185
919,nan,64,6608,33296,397666.2311296463
920,nan,71,6608,33296,398105.06391072273
921,nan,63,6608,33296,398542.28332185745
922,nan,68,6608,33296,398975.66439437866
923,nan,66,6608,33296,399407.85973358154
924,nan,73,6608,33296,399837.4650759697
925,nan,67,6608,33296,400268.80451631546
926,nan,69,6608,33296,400703.7439620495
927,nan,68,6608,33296,401134.9811067581
928,nan,68,6608,33296,401572.6808526516
929,nan,67,6608,33296,402001.5710160732
930,nan,71,6608,33296,402443.98214006424
931,nan,73,6608,33296,402874.30038523674
932,nan,61,6608,33296,403301.4945983887
933,nan,67,6608,33296,403733.87420129776
934,nan,69,6608,33296,404171.6902484894
935,nan,69,6608,33296,404603.69051480293
936,nan,70,6608,33296,405039.2821381092
937,nan,62,6608,33296,405479.69296216965
938,nan,71,6608,33296,405922.9440217018
939,nan,71,6608,33296,406361.803245306
940,nan,71,6608,33296,406798.9946181774
941,nan,69,6608,33296,407236.8517074585
942,nan,73,6608,33296,407678.69178676605
943,nan,66,6608,33296,408122.2432780266
944,nan,65,6608,33296,408552.1041266918
945,nan,63,6608,33296,408990.5210530758
946,nan,65,6608,33296,409421.75267863274
947,nan,68,6608,33296,409848.7513461113
948,nan,75,6608,33296,410280.6904759407
949,nan,73,6608,33296,410720.8938565254
950,nan,66,6608,33296,411157.7310333252
951,nan,67,6608,33296,411593.9847278595
952,nan,70,6608,33296,412027.4999437332
953,nan,65,6608,33296,412463.63245391846
954,nan,61,6608,33296,412890.5975718498
955,nan,66,6608,33296,413322.0350432396
956,nan,70,6608,33296,413754.7720487118
957,nan,68,6608,33296,414183.88917446136
958,nan,64,6608,33296,414611.8376224041
959,nan,66,6608,33296,415039.03676462173
960,nan,60,6608,33296,415473.89718055725
961,nan,71,6608,33296,415910.36980223656
962,nan,66,6608,33296,416339.8580105305
963,nan,71,6608,33296,416775.08332157135
964,nan,66,6608,33296,417206.13156056404
965,nan,66,6608,33296,417640.66849684715
966,nan,68,6608,33296,418077.8727629185
967,nan,61,6608,33296,418513.2254781723
968,nan,68,6608,33296,418945.4233572483
969,nan,72,6608,33296,419385.4920024872
970,nan,68,6608,33296,419823.54760813713
971,nan,74,6608,33296,420261.3694784641
972,nan,69,6608,33296,420691.28590607643
973,nan,65,6608,33296,421120.3989164829
974,nan,69,6608,33296,421552.8114953041
975,nan,66,6608,33296,421989.964448452
976,nan,70,6608,33296,422426.2466535568
977,nan,75,6608,33296,422866.88411045074
978,nan,72,6608,33296,423302.56299209595
979,nan,69,6608,33296,423737.63609075546
980,nan,69,6608,33296,424179.2879707813
981,nan,70,6608,33296,424611.2921588421
982,nan,61,6608,33296,425046.6897022724
983,nan,69,6608,33296,425489.1131296158
984,nan,67,6608,33296,425924.1602194309
985,nan,67,6608,33296,426356.7031648159
986,nan,69,6608,33296,426788.9351387024
987,nan,66,6608,33296,427224.8241801262
988,nan,68,6608,33296,427662.19598031044
989,nan,67,6608,33296,428098.7934410572
990,nan,68,6608,33296,428542.70491456985
991,nan,63,6608,33296,428982.909627676
992,nan,67,6608,33296,429418.75332570076
993,nan,68,6608,33296,429856.59425497055
994,nan,70,6608,33296,430296.70823431015
995,nan,66,6608,33296,430736.5646800995
996,nan,70,6608,33296,431171.70738196373
997,nan,70,6608,33296,431608.63847494125
998,nan,68,6608,33296,432028.5134344101
999,nan,67,6608,33296,432445.8350548744
1000,nan,77,6608,33296,432861.3560848236
