M_co2_e,M_glc__D_e,M_h2o_e,M_h_e,M_nh4_e,M_o2_e,M_pi_e,objective
0.000000000000000000e+00,-3.475137999999999749e+01,0.000000000000000000e+00,0.000000000000000000e+00,-5.452799999999999869e+00,0.000000000000000000e+00,-3.678700000000000081e+00,1.000000000000000000e+00
-1.786699999999999955e+00,-3.283092727272727274e+01,-1.920452727272727245e+01,0.000000000000000000e+00,-5.452799999999999869e+00,0.000000000000000000e+00,-3.678700000000000081e+00,1.000000000000000000e+00
0.000000000000000000e+00,-1.279054722222222296e+01,0.000000000000000000e+00,0.000000000000000000e+00,-5.452799999999999869e+00,-1.798186111111111174e+01,-3.678700000000000081e+00,1.000000000000000000e+00
0.000000000000000000e+00,0.000000000000000000e+00,-1.000000000000000000e+00,0.000000000000000000e+00,0.000000000000000000e+00,0.000000000000000000e+00,0.000000000000000000e+00,0.000000000000000000e+00
-1.786699999999999955e+00,-2.242847499999999883e+01,0.000000000000000000e+00,0.000000000000000000e+00,-5.452799999999999869e+00,-8.802075000000000315e+00,-3.678700000000000081e+00,1.000000000000000000e+00
-1.786699999999999955e+00,-1.945055416666666659e+01,0.000000000000000000e+00,0.000000000000000000e+00,-5.452799999999999869e+00,-1.132185416666666633e+01,-3.678700000000000081e+00,1.000000000000000000e+00
0.000000000000000000e+00,-2.294959583333333342e+01,0.000000000000000000e+00,0.000000000000000000e+00,-5.452799999999999869e+00,-8.429845833333333260e+00,-3.678700000000000081e+00,1.000000000000000000e+00
0.000000000000000000e+00,-3.291214090909090828e+01,-1.839239090909090990e+01,0.000000000000000000e+00,-5.452799999999999869e+00,0.000000000000000000e+00,-3.678700000000000081e+00,1.000000000000000000e+00
0.000000000000000000e+00,0.000000000000000000e+00,0.000000000000000000e+00,-1.000000000000000000e+00,0.000000000000000000e+00,0.000000000000000000e+00,0.000000000000000000e+00,0.000000000000000000e+00
0.000000000000000000e+00,-1.900387916666666754e+01,0.000000000000000000e+00,0.000000000000000000e+00,-5.452799999999999869e+00,-1.176852916666666715e+01,-3.678700000000000081e+00,1.000000000000000000e+00
0.000000000000000000e+00,-1.090931944444444390e+01,0.000000000000000000e+00,0.000000000000000000e+00,-5.452799999999999869e+00,-2.174431666666666629e+01,-3.678700000000000081e+00,1.000000000000000000e+00
0.000000000000000000e+00,0.000000000000000000e+00,0.000000000000000000e+00,0.000000000000000000e+00,0.000000000000000000e+00,0.000000000000000000e+00,-1.000000000000000000e+00,0.000000000000000000e+00
0.000000000000000000e+00,-1.000000000000000000e+00,0.000000000000000000e+00,0.000000000000000000e+00,0.000000000000000000e+00,0.000000000000000000e+00,0.000000000000000000e+00,0.000000000000000000e+00
-1.000000000000000000e+00,0.000000000000000000e+00,0.000000000000000000e+00,0.000000000000000000e+00,0.000000000000000000e+00,0.000000000000000000e+00,0.000000000000000000e+00,0.000000000000000000e+00
0.000000000000000000e+00,0.000000000000000000e+00,0.000000000000000000e+00,0.000000000000000000e+00,-1.000000000000000000e+00,0.000000000000000000e+00,0.000000000000000000e+00,0.000000000000000000e+00
0.000000000000000000e+00,0.000000000000000000e+00,0.000000000000000000e+00,0.000000000000000000e+00,0.000000000000000000e+00,-1.000000000000000000e+00,0.000000000000000000e+00,0.000000000000000000e+00
